<?xml version="1.0" encoding="utf-8"?>
<!-- Generated by IcoMoon.io -->
<!DOCTYPE svg PUBLIC "-//W3C//DTD SVG 1.1//EN" "http://www.w3.org/Graphics/SVG/1.1/DTD/svg11.dtd">
<svg version="1.1" xmlns="http://www.w3.org/2000/svg" xmlns:xlink="http://www.w3.org/1999/xlink" width="32" height="32" viewBox="0 0 32 32">
<g id="icomoon-ignore">
</g>
<path d="M2 2.001h28v7.999h-28v-7.999z" fill="#000000"></path>
<path d="M2 12h28v7.999h-28v-7.999z" fill="#000000"></path>
<path d="M2 22.011h28v7.999h-28v-7.999z" fill="#000000"></path>
</svg>
