<?xml version="1.0" encoding="utf-8"?>
<!-- Generator: Adobe Illustrator 16.0.4, SVG Export Plug-In . SVG Version: 6.00 Build 0)  -->
<!DOCTYPE svg PUBLIC "-//W3C//DTD SVG 1.1//EN" "http://www.w3.org/Graphics/SVG/1.1/DTD/svg11.dtd">
<svg version="1.1" xmlns="http://www.w3.org/2000/svg" xmlns:xlink="http://www.w3.org/1999/xlink" x="0px" y="0px" width="143px"
     height="779.709px" viewBox="0 0 143 779.709" style="enable-background:new 0 0 143 779.709;" xml:space="preserve">
<style type="text/css">
<![CDATA[
    .st0{opacity:0.7;fill:url(#SVGID_1_);}
]]>
</style>
<g id="Layer_2">
</g>
<g id="Layer_1">
    <linearGradient id="SVGID_1_" gradientUnits="userSpaceOnUse" x1="71.5005" y1="779.833" x2="71.5005" y2="-0.1406">
        <stop  offset="0" style="stop-color:#FFFFFF;stop-opacity:0"/>
        <stop  offset="1" style="stop-color:#FFFFFF"/>
    </linearGradient>
    <path class="st0" d="M142.916,701.833l-35.671-39.012L71.57,623.805l-35.667,39.017L0.229,701.833H71.57H142.916z M143,545.768
        l-35.713,39.035l-35.722,39.03H143V545.768z M0,623.833h71.548l-35.779-39.03L0,545.768V623.833z M143,701.801l-35.713,39.019
        l-35.722,39.014H143V701.801z M0,779.833h71.548L35.77,740.819L0,701.801V779.833z M143,545.833l-35.67-39.034l-35.675-39.028
        l-35.667,39.033L0.313,545.833h71.342H143z M142.916,389.833l-35.671-38.937L71.57,311.917l-35.667,38.96L0.229,389.833H71.57
        H142.916z M143,233.918l-35.713,38.959l-35.722,38.955H143V233.918z M0,311.833h71.548L35.77,272.878L0,233.918V311.833z
         M143,77.897l-35.665,38.97L71.66,155.833H143V77.897z M0,155.833h71.643l-35.827-38.966L0,77.897V155.833z M143,389.951
        l-35.713,38.943l-35.722,38.939H143V389.951z M0,467.833h71.548L35.77,428.894L0,389.951V467.833z M143,233.833l-35.67-38.959
        l-35.675-38.99L35.988,194.86L0.313,233.833h71.342H143z M143,77.833l-35.67-38.976L71.655-0.141L35.988,38.848L0.313,77.833
        h71.342H143z"/>
</g>
</svg>
