<?xml version="1.0" encoding="utf-8"?>
<!-- Generator: Adobe Illustrator 16.0.4, SVG Export Plug-In . SVG Version: 6.00 Build 0)  -->
<!DOCTYPE svg PUBLIC "-//W3C//DTD SVG 1.1//EN" "http://www.w3.org/Graphics/SVG/1.1/DTD/svg11.dtd">
<svg version="1.1" xmlns="http://www.w3.org/2000/svg" xmlns:xlink="http://www.w3.org/1999/xlink" x="0px" y="0px" width="1893px"
	 height="159px" viewBox="0 0 1893 159" enable-background="new 0 0 1893 159" xml:space="preserve">
<g id="Layer_2" display="none">
	<rect display="inline" fill="#84D2E2" width="1893" height="159"/>
</g>
<g id="elements">
	<g>
		<polygon fill="none" points="1674.787,119.14 1674.777,119.131 1674.777,119.131 		"/>
		<polygon fill="none" points="691.675,79.43 696.901,85.12 691.675,79.43 		"/>
		<polygon fill="none" points="1856.686,79.43 1820.211,39.722 1820.211,39.722 		"/>
		<polygon fill="none" points="1747.529,39.662 1711.104,0.01 1747.529,39.662 		"/>
		<polygon fill="none" points="1727.639,61.252 1711.02,79.412 1711.02,79.412 		"/>
		<polygon fill="none" points="1804.412,101.705 1783.953,79.43 1783.953,79.43 		"/>
		<polygon fill="none" points="1674.777,119.13 1638.309,79.427 1674.777,119.13 		"/>
		<polygon fill="none" points="1711.104,79.43 1692.225,100.062 1711.104,79.43 		"/>
		<polygon fill="none" points="1601.932,119.125 1565.469,79.43 1565.469,79.43 		"/>
		<polygon fill="none" points="728.133,119.125 728.119,119.14 728.133,119.125 		"/>
		<polygon fill="none" points="764.453,79.43 764.453,79.43 752.465,92.531 		"/>
		<rect x="1619.985" y="32.62" fill="none" width="0" height="53.887"/>
		
			<rect x="1556.809" y="138.928" transform="matrix(0.6751 -0.7378 0.7378 0.6751 412.0962 1213.5031)" fill="none" width="53.684" height="0"/>
		<polygon fill="none" points="582.284,39.722 545.97,79.409 582.284,39.722 		"/>
		<polygon fill="none" points="1638.365,158.731 1638.365,158.731 1641.686,155.101 		"/>
		<polygon fill="none" points="1638.264,158.731 1638.264,158.731 1613.135,131.377 		"/>
		<polygon fill="none" points="618.786,79.409 582.331,39.722 582.331,39.722 		"/>
		<polygon fill="none" points="815.545,135.083 800.899,119.14 800.899,119.14 		"/>
		<polygon fill="none" points="1890.424,119.065 1893.15,119.062 1890.424,119.065 		"/>
		<polygon fill="none" points="545.976,0.01 509.642,39.719 473.166,0.01 509.642,39.719 		"/>
		<polygon fill="none" points="1784.002,158.731 1784.002,158.731 1787.322,155.101 		"/>
		
			<rect x="1738.841" y="138.931" transform="matrix(-0.6765 -0.7364 0.7364 -0.6765 2857.9209 1533.2802)" fill="none" width="53.773" height="0"/>
		<polygon fill="none" points="800.937,119.14 764.458,79.43 764.458,79.43 		"/>
		
			<rect x="1666.033" y="138.936" transform="matrix(-0.6765 -0.7364 0.7364 -0.6765 2735.8867 1479.6328)" fill="none" width="53.762" height="0"/>
		<polygon fill="none" points="691.678,79.424 686.076,73.324 691.678,79.424 		"/>
		<polygon fill="none" points="1711.182,158.731 1711.182,158.731 1715.879,153.598 		"/>
		
			<rect x="537.352" y="138.928" transform="matrix(0.6751 -0.7378 0.7378 0.6751 80.8313 461.3822)" fill="none" width="53.685" height="0"/>
		<polygon fill="none" points="36.107,0.01 -0.22,39.711 -0.225,39.706 -0.22,39.712 		"/>
		<polygon fill="none" points="400.345,79.414 363.884,39.722 363.884,39.722 		"/>
		<polygon fill="none" points="254.695,79.43 218.375,119.125 254.695,79.43 		"/>
		
			<rect x="318.874" y="138.928" transform="matrix(0.6751 -0.7378 0.7378 0.6751 9.8399 300.1978)" fill="none" width="53.685" height="0"/>
		
			<rect x="391.697" y="138.928" transform="matrix(0.6751 -0.7378 0.7378 0.6751 33.5016 353.9217)" fill="none" width="53.685" height="0"/>
		
			<rect x="246.051" y="138.928" transform="matrix(0.6751 -0.7378 0.7378 0.6751 -13.8233 246.4707)" fill="none" width="53.685" height="0"/>
		<polygon fill="none" points="36.212,79.419 -0.229,119.062 36.212,79.419 		"/>
		<polygon fill="none" points="36.297,158.731 36.297,158.731 72.592,119.065 		"/>
		<polygon fill="none" points="109.125,158.731 109.125,158.731 125.735,140.58 		"/>
		
			<rect x="173.209" y="138.92" transform="matrix(0.6751 -0.7377 0.7377 0.6751 -37.4832 192.7339)" fill="none" width="53.707" height="0"/>
		<polygon fill="none" points="291.191,119.125 254.729,79.43 254.729,79.43 		"/>
		<polygon fill="none" points="888.408,135.141 873.71,119.14 873.71,119.14 		"/>
		<polygon fill="none" points="509.496,39.732 473.188,79.414 441.135,44.522 473.188,79.415 		"/>
		<polygon fill="none" points="1019.375,119.14 982.898,79.43 982.898,79.43 		"/>
		<polygon fill="none" points="837.312,79.426 813.786,53.816 837.312,79.426 861.709,52.763 		"/>
		<polygon fill="none" points="910.083,79.43 910.083,79.43 946.561,119.139 982.893,79.43 982.893,79.43 946.561,119.139 		"/>
		<polygon fill="none" points="1019.273,39.722 982.938,79.43 1019.273,39.722 		"/>
		<polygon fill="none" points="473.173,79.43 473.159,79.445 473.173,79.43 		"/>
		<polygon fill="none" points="691.641,79.43 683.679,88.133 691.641,79.43 		"/>
		
			<rect x="464.52" y="138.928" transform="matrix(0.6751 -0.7378 0.7378 0.6751 57.1656 407.6497)" fill="none" width="53.685" height="0"/>
		<polygon fill="none" points="1092.055,39.732 1055.744,79.416 1055.744,79.416 		"/>
		<polygon fill="none" points="946.513,39.71 910.042,0.01 946.513,39.71 		"/>
		<polygon fill="none" points="1820.498,119.065 1820.498,119.065 1856.768,79.427 		"/>
		<polygon fill="none" points="910.042,0.01 873.708,39.719 837.232,0.01 873.708,39.72 		"/>
		<polygon fill="none" points="229.034,130.825 218.271,119.109 218.271,119.109 		"/>
		<polygon fill="none" points="1783.822,79.43 1747.348,39.722 1747.348,39.722 		"/>
		<polygon fill="none" points="109.046,79.413 88.016,56.519 109.046,79.413 		"/>
		<polygon fill="none" points="837.271,79.43 800.937,119.14 837.271,79.43 		"/>
		<polygon fill="none" points="1047.09,69.994 1019.283,39.722 1019.283,39.722 		"/>
		<polygon fill="none" points="837.232,0.01 800.912,39.703 800.912,39.703 		"/>
		<polygon fill="none" points="1783.947,79.43 1747.613,119.14 1783.947,79.43 		"/>
		<polygon fill="none" points="72.697,119.062 36.25,79.43 36.25,79.43 		"/>
		<polygon fill="none" points="145.464,39.657 109.044,0.01 145.464,39.657 		"/>
		<polygon fill="none" points="218.378,119.109 181.916,79.414 181.916,79.414 		"/>
		<polygon fill="none" points="139.253,46.431 109.089,79.394 109.076,79.38 109.089,79.394 		"/>
		<polygon fill="none" points="218.221,39.701 218.212,39.711 181.742,0.01 218.212,39.711 		"/>
		<polygon fill="none" points="1747.594,119.131 1711.127,79.43 1711.127,79.43 		"/>
		<polygon fill="none" points="36.241,79.419 36.246,79.425 36.241,79.419 		"/>
		<polygon fill="none" points="145.556,119.094 109.123,79.43 109.123,79.43 		"/>
		<polygon fill="none" points="181.871,79.426 158.34,53.811 181.871,79.426 181.899,79.396 		"/>
		<polygon fill="none" points="291.156,39.718 254.68,0.01 291.156,39.718 		"/>
		<polygon fill="none" points="1128.533,158.731 1128.533,158.731 1103.404,131.377 		"/>
		
			<rect x="1119.889" y="138.936" transform="matrix(0.6751 -0.7377 0.7377 0.6751 270.0972 891.1345)" fill="none" width="53.666" height="0"/>
		<polygon fill="none" points="1492.699,158.731 1492.699,158.731 1496.635,154.428 		"/>
		
			<rect x="1447.548" y="138.936" transform="matrix(-0.6765 -0.7364 0.7364 -0.6765 2369.5603 1318.7585)" fill="none" width="53.761" height="0"/>
		<polygon fill="none" points="1399.861,57.769 1383.287,39.722 1383.287,39.722 		"/>
		<polygon fill="none" points="1383.277,39.722 1346.943,79.43 1383.277,39.722 		"/>
		
			<rect x="1010.646" y="138.936" transform="matrix(-0.6765 -0.7365 0.7365 -0.6765 1637.0692 997.0201)" fill="none" width="53.759" height="0"/>
		<polygon fill="none" points="910.077,79.43 873.748,119.136 837.276,79.43 837.276,79.43 873.748,119.136 910.077,79.43 		"/>
		
			<rect x="974.256" y="138.936" transform="matrix(0.6751 -0.7377 0.7377 0.6751 222.7778 783.6943)" fill="none" width="53.666" height="0"/>
		<polygon fill="none" points="1346.977,79.43 1320.33,108.555 1346.977,79.43 		"/>
		<polygon fill="none" points="1492.566,79.43 1456.092,39.722 1456.092,39.722 		"/>
		
			<rect x="1047.079" y="138.928" transform="matrix(0.6751 -0.7378 0.7378 0.6751 246.4641 837.4426)" fill="none" width="53.684" height="0"/>
		<polygon fill="none" points="1456.082,39.722 1439.568,57.769 1456.082,39.722 		"/>
		<polygon fill="none" points="1383.461,119.14 1346.982,79.43 1346.982,79.43 		"/>
		<polygon fill="none" points="1419.824,79.43 1383.49,119.14 1419.824,79.43 		"/>
		<polygon fill="none" points="1346.982,158.731 1346.982,158.731 1331.303,141.661 		"/>
		<polygon fill="none" points="1456.309,119.14 1419.83,79.43 1419.83,79.43 		"/>
		
			<rect x="1338.34" y="138.936" transform="matrix(0.6751 -0.7378 0.7378 0.6751 341.1013 1052.3231)" fill="none" width="53.664" height="0"/>
		
			<rect x="1229.095" y="138.936" transform="matrix(-0.6765 -0.7364 0.7364 -0.6765 2003.3239 1157.8804)" fill="none" width="53.761" height="0"/>
		
			<rect x="1192.707" y="138.936" transform="matrix(0.6751 -0.7378 0.7378 0.6751 293.7789 944.8802)" fill="none" width="53.664" height="0"/>
		<polygon fill="none" points="1274.248,158.731 1274.248,158.731 1294.893,136.172 		"/>
		
			<rect x="1411.158" y="138.936" transform="matrix(0.6751 -0.7377 0.7377 0.6751 364.7375 1106.0181)" fill="none" width="53.666" height="0"/>
		
			<rect x="1374.727" y="138.936" transform="matrix(-0.6765 -0.7365 0.7365 -0.6765 2247.4136 1265.1744)" fill="none" width="53.758" height="0"/>
		
			<rect x="1156.278" y="138.936" transform="matrix(-0.6765 -0.7365 0.7365 -0.6765 1881.2196 1104.2732)" fill="none" width="53.759" height="0"/>
		<polygon fill="none" points="1310.453,39.722 1274.119,79.43 1310.453,39.722 		"/>
		
			<rect x="1520.357" y="138.931" transform="matrix(-0.6765 -0.7365 0.7365 -0.6765 2491.6177 1372.3893)" fill="none" width="53.773" height="0"/>
		<polygon fill="none" points="1274.125,0.01 1237.801,39.711 1201.328,0.01 1237.801,39.711 		"/>
		<polygon fill="none" points="764.535,158.731 764.535,158.731 786.172,135.083 		"/>
		
			<rect x="682.987" y="138.928" transform="matrix(0.6751 -0.7378 0.7378 0.6751 128.1506 568.8221)" fill="none" width="53.685" height="0"/>
		<polygon fill="none" points="1225.762,52.675 1201.312,79.396 1178.018,54.035 1201.312,79.397 		"/>
		<polygon fill="none" points="655.325,119.121 618.847,79.411 655.325,119.121 		"/>
		
			<rect x="610.183" y="138.928" transform="matrix(0.6751 -0.7378 0.7378 0.6751 104.499 515.1169)" fill="none" width="53.684" height="0"/>
		<polygon fill="none" points="910.16,158.731 910.16,158.731 932.067,134.79 		"/>
		<polygon fill="none" points="1529.115,119.13 1492.664,79.445 1492.664,79.445 		"/>
		<polygon fill="none" points="1346.938,79.43 1310.463,39.722 1310.463,39.722 		"/>
		
			<rect x="937.827" y="138.936" transform="matrix(-0.6765 -0.7365 0.7365 -0.6765 1514.9907 943.3922)" fill="none" width="53.759" height="0"/>
		<polygon fill="none" points="1492.609,79.445 1456.301,119.13 1492.609,79.445 		"/>
		<polygon fill="none" points="837.345,158.731 837.345,158.731 858.983,135.083 		"/>
		<polygon opacity="0.8" fill="#FFFFFF" points="1821.338,40.832 1821.338,40.832 1821.416,40.832 1783.805,-1.1 1746.4,40.766 
			1746.4,40.766 1746.4,40.766 1746.457,40.832 1821.33,40.832 1821.334,40.824 		"/>
		<polygon fill="#FFFFFF" points="1894.275,40.821 1856.734,-1.095 1819.26,40.827 1894.238,40.836 1894.225,40.821 		"/>
		<polygon opacity="0.9" fill="#FFFFFF" points="1711.102,-1.1 1673.641,40.832 1748.459,40.832 1748.463,40.824 1748.469,40.832 
			1748.469,40.832 1748.598,40.832 1748.656,40.766 		"/>
		<polygon opacity="0.8" fill="#FFFFFF" points="1747.473,39.722 1747.584,39.722 1747.529,39.662 		"/>
		<polygon opacity="0.4" fill="#FFFFFF" points="1747.473,39.722 1747.584,39.722 1747.529,39.662 		"/>
		<polygon opacity="0.8" fill="#FFFFFF" points="1675.652,40.832 1675.855,40.832 1638.275,-1.1 1600.84,40.832 1675.615,40.832 
			1675.633,40.808 		"/>
		<polygon fill="#FFFFFF" points="1602.854,40.832 1602.854,40.832 1603.016,40.832 1565.434,-1.1 1528,40.828 1528,40.832 
			1602.844,40.832 1602.85,40.824 		"/>
		<polygon opacity="0.9" fill="#FFFFFF" points="1492.619,-1.1 1455.184,40.832 1530.197,40.832 1530.199,40.828 		"/>
		<polygon fill="#FFFFFF" points="1529.1,39.721 1529.1,39.721 1529.098,39.722 1529.1,39.722 1529.1,39.721 		"/>
		<polygon opacity="0.9" fill="#FFFFFF" points="1529.1,39.721 1529.1,39.721 1529.098,39.722 1529.1,39.722 1529.1,39.721 		"/>
		<polygon opacity="0.8" fill="#FFFFFF" points="1457.182,40.824 1457.186,40.832 1457.186,40.832 1457.361,40.832 1419.779,-1.1 
			1382.346,40.832 1457.176,40.832 1457.176,40.832 		"/>
		<polygon opacity="0.85" fill="#FFFFFF" points="1384.379,40.824 1384.383,40.832 1384.383,40.832 1384.523,40.832 1346.941,-1.1 
			1309.508,40.832 1384.373,40.832 1384.373,40.832 		"/>
		<polygon opacity="0.9" fill="#FFFFFF" points="1311.559,40.824 1311.564,40.832 1311.564,40.832 1311.709,40.832 1274.123,-1.1 
			1236.695,40.818 1236.705,40.832 1311.555,40.832 1311.555,40.832 		"/>
		<polygon opacity="0.8" fill="#FFFFFF" points="1201.326,-1.1 1163.889,40.832 1238.711,40.832 1238.73,40.808 1238.75,40.832 
			1238.893,40.832 1238.902,40.818 		"/>
		<polygon opacity="0.9" fill="#FFFFFF" points="1237.791,39.722 1237.811,39.722 1237.801,39.711 		"/>
		<polygon opacity="0.4" fill="#FFFFFF" points="1237.791,39.722 1237.811,39.722 1237.801,39.711 		"/>
		<polygon opacity="0.9" fill="#FFFFFF" points="1165.965,40.832 1166.068,40.832 1128.488,-1.1 1091.055,40.828 1091.057,40.832 
			1165.926,40.832 1165.943,40.808 		"/>
		<polygon opacity="0.8" fill="#FFFFFF" points="1055.676,-1.1 1018.238,40.832 1093.254,40.832 1093.254,40.828 		"/>
		<polygon opacity="0.9" fill="#FFFFFF" points="1092.154,39.721 1092.154,39.721 1092.154,39.722 1092.156,39.722 1092.154,39.721 
					"/>
		<polygon opacity="0.4" fill="#FFFFFF" points="1092.154,39.721 1092.154,39.721 1092.154,39.722 1092.156,39.722 1092.154,39.721 
					"/>
		<polygon fill="#FFFFFF" points="945.419,40.832 1020.377,40.832 1020.377,40.832 1020.381,40.824 1020.387,40.832 
			1020.387,40.832 1020.424,40.832 982.836,-1.1 945.409,40.817 945.409,40.817 945.409,40.817 		"/>
		<polygon opacity="0.8" fill="#FFFFFF" points="872.606,40.832 947.558,40.832 947.563,40.824 947.567,40.832 947.607,40.832 
			947.618,40.817 910.041,-1.1 872.604,40.827 		"/>
		<polygon fill="#FFFFFF" points="946.513,39.71 946.502,39.722 946.524,39.722 		"/>
		<polygon opacity="0.6" fill="#FFFFFF" points="946.513,39.71 946.502,39.722 946.524,39.722 		"/>
		<polygon opacity="0.9" fill="#FFFFFF" points="799.82,40.832 874.75,40.832 874.753,40.824 874.758,40.832 874.816,40.832 
			874.818,40.827 837.229,-1.1 799.803,40.81 		"/>
		<polygon opacity="0.6" fill="#FFFFFF" points="873.708,39.72 873.707,39.722 873.711,39.722 		"/>
		<polygon opacity="0.4" fill="#FFFFFF" points="873.708,39.72 873.707,39.722 873.711,39.722 		"/>
		<polygon fill="#FFFFFF" points="729.112,40.832 729.189,40.832 691.609,-1.1 654.174,40.832 729.104,40.832 729.107,40.824 		"/>
		<polygon opacity="0.8" fill="#FFFFFF" points="801.945,40.832 802.002,40.832 802.02,40.81 802.02,40.81 802.02,40.81 
			764.448,-1.1 727.004,40.832 801.936,40.832 801.94,40.824 		"/>
		<polygon opacity="0.4" fill="#FFFFFF" points="800.912,39.703 800.895,39.722 800.929,39.722 		"/>
		<polygon opacity="0.98" fill="#FFFFFF" points="800.912,39.703 800.895,39.722 800.929,39.722 		"/>
		<polygon opacity="0.9" fill="#FFFFFF" points="656.313,40.832 656.354,40.832 618.766,-1.1 581.339,40.816 581.35,40.832 
			656.305,40.832 656.309,40.824 		"/>
		<polygon opacity="0.8" fill="#FFFFFF" points="545.974,-1.1 508.535,40.826 508.538,40.832 583.386,40.832 583.386,40.832 
			583.41,40.803 583.434,40.832 583.434,40.832 583.539,40.832 583.55,40.816 		"/>
		<polygon opacity="0.9" fill="#FFFFFF" points="582.444,39.709 582.444,39.709 582.432,39.722 582.455,39.722 582.444,39.709 		"/>
		<polygon opacity="0.65" fill="#FFFFFF" points="582.444,39.709 582.444,39.709 582.432,39.722 582.455,39.722 582.444,39.709 		
			"/>
		<polygon opacity="0.9" fill="#FFFFFF" points="473.164,-1.1 435.728,40.832 510.74,40.832 510.743,40.826 		"/>
		<polygon opacity="0.65" fill="#FFFFFF" points="509.64,39.722 509.645,39.722 509.642,39.719 		"/>
		<polygon opacity="0.7" fill="#FFFFFF" points="509.64,39.722 509.645,39.722 509.642,39.719 		"/>
		<polygon opacity="0.9" fill="#FFFFFF" points="437.822,40.832 437.914,40.832 400.333,-1.1 362.899,40.832 437.812,40.832 
			437.817,40.824 		"/>
		<polygon opacity="0.8" fill="#FFFFFF" points="290.058,40.832 364.945,40.832 364.963,40.808 364.984,40.832 364.984,40.832 
			365.069,40.832 327.487,-1.1 290.054,40.825 290.054,40.825 290.054,40.825 		"/>
		<polygon opacity="0.9" fill="#FFFFFF" points="292.13,40.832 292.253,40.832 292.257,40.825 254.678,-1.1 217.242,40.832 
			292.121,40.832 292.125,40.824 		"/>
		<polygon opacity="0.4" fill="#FFFFFF" points="291.152,39.722 291.159,39.722 291.156,39.718 		"/>
		<polygon opacity="0.9" fill="#FFFFFF" points="291.152,39.722 291.159,39.722 291.156,39.718 		"/>
		<polygon opacity="0.8" fill="#FFFFFF" points="144.393,40.832 219.336,40.832 219.346,40.818 181.738,-1.1 144.331,40.762 
			144.331,40.762 144.331,40.762 		"/>
		<polygon opacity="0.9" fill="#FFFFFF" points="146.527,40.832 146.532,40.832 146.594,40.762 109.043,-1.1 71.579,40.832 
			146.518,40.832 146.523,40.824 		"/>
		<polygon opacity="0.6" fill="#FFFFFF" points="145.464,39.657 145.404,39.722 145.524,39.722 		"/>
		<polygon opacity="0.25" fill="#FFFFFF" points="145.464,39.657 145.404,39.722 145.524,39.722 		"/>
		<polygon opacity="0.8" fill="#FFFFFF" points="-1.313,40.832 73.68,40.832 73.685,40.824 73.689,40.832 73.692,40.832 
			36.105,-1.1 -1.323,40.819 		"/>
		<polygon opacity="0.9" fill="#FFFFFF" points="1855.43,80.547 1894.438,80.547 1894.438,38.654 1894.402,38.616 		"/>
		<polygon opacity="0.9" fill="#FFFFFF" points="1782.852,80.538 1782.855,80.541 1782.855,80.541 1857.785,80.541 1820.209,38.61 
			1820.201,38.61 1782.771,80.541 1782.85,80.541 1782.85,80.541 		"/>
		<rect x="1820.204" y="39.719" opacity="0.8" fill="#FFFFFF" width="0.006" height="0.006"/>
		<rect x="1820.204" y="39.719" opacity="0.2" fill="#FFFFFF" width="0.006" height="0.006"/>
		<polygon fill="#FFFFFF" points="1747.338,38.61 1727.041,61.346 1709.922,80.523 1709.924,80.525 1709.922,80.525 
			1709.906,80.541 1710.008,80.541 1710.008,80.541 1710.02,80.528 1710.033,80.541 1710.033,80.541 1784.92,80.541 1747.346,38.61 
					"/>
		<rect x="1747.341" y="39.719" opacity="0.4" fill="#FFFFFF" width="0.006" height="0.006"/>
		<rect x="1747.341" y="39.719" opacity="0.7" fill="#FFFFFF" width="0.006" height="0.006"/>
		<polygon fill="#FFFFFF" points="1712.123,80.531 1712.123,80.531 1674.557,38.603 1674.52,38.603 1637.109,80.525 
			1637.109,80.525 1637.109,80.525 1637.115,80.533 1712.123,80.533 1712.123,80.531 		"/>
		<polygon opacity="0.4" fill="#FFFFFF" points="1674.559,39.722 1674.559,39.722 1674.539,39.701 1674.521,39.722 1674.521,39.722 
					"/>
		<polygon opacity="0.85" fill="#FFFFFF" points="1674.559,39.722 1674.559,39.722 1674.539,39.701 1674.521,39.722 
			1674.521,39.722 		"/>
		<rect x="1711.019" y="79.413" opacity="0.7" fill="#FFFFFF" width="0.003" height="0.002"/>
		<rect x="1711.019" y="79.413" opacity="0.85" fill="#FFFFFF" width="0.003" height="0.002"/>
		<polygon fill="#FFFFFF" points="1639.303,80.525 1639.311,80.516 1601.756,38.61 1601.748,38.61 1564.318,80.541 1564.338,80.541 
			1564.352,80.522 1564.373,80.541 1564.373,80.541 1639.332,80.541 1639.316,80.525 		"/>
		<rect x="1601.751" y="39.719" fill="#FFFFFF" width="0.006" height="0.006"/>
		<rect x="1601.751" y="39.719" opacity="0.8" fill="#FFFFFF" width="0.006" height="0.006"/>
		<polygon opacity="0.85" fill="#FFFFFF" points="1638.205,79.414 1638.219,79.414 1638.219,79.414 1638.213,79.406 		"/>
		<polygon opacity="0.8" fill="#FFFFFF" points="1638.205,79.414 1638.219,79.414 1638.219,79.414 1638.213,79.406 		"/>
		<polygon opacity="0.9" fill="#FFFFFF" points="1491.539,80.522 1491.566,80.555 1491.566,80.555 1566.488,80.555 1528.908,38.624 
			1491.473,80.555 1491.512,80.555 1491.512,80.555 		"/>
		<polygon opacity="0.85" fill="#FFFFFF" points="1418.658,80.541 1418.725,80.541 1418.725,80.541 1418.729,80.538 1418.73,80.541 
			1418.73,80.541 1493.668,80.541 1456.09,38.61 1456.08,38.61 1439.068,57.667 1418.652,80.535 		"/>
		<polygon opacity="0.7" fill="#FFFFFF" points="1456.082,39.722 1456.092,39.722 1456.088,39.717 		"/>
		<polygon opacity="0.4" fill="#FFFFFF" points="1456.082,39.722 1456.092,39.722 1456.088,39.717 		"/>
		<polygon opacity="0.9" fill="#FFFFFF" points="1345.879,80.538 1345.883,80.541 1345.883,80.541 1420.85,80.541 1420.855,80.535 
			1400.361,57.667 1383.285,38.61 1383.275,38.61 1345.842,80.541 1345.875,80.541 1345.875,80.541 		"/>
		<polygon opacity="0.8" fill="#FFFFFF" points="1383.277,39.722 1383.287,39.722 1383.283,39.717 		"/>
		<polygon opacity="0.4" fill="#FFFFFF" points="1383.277,39.722 1383.287,39.722 1383.283,39.717 		"/>
		<polygon opacity="0.4" fill="#FFFFFF" points="1419.754,79.424 1419.754,79.424 1419.748,79.43 1419.76,79.43 1419.754,79.424 		
			"/>
		<polygon opacity="0.4" fill="#FFFFFF" points="1419.754,79.424 1419.754,79.424 1419.748,79.43 1419.76,79.43 1419.754,79.424 		
			"/>
		<polygon fill="#FFFFFF" points="1273.094,80.541 1348.035,80.541 1310.461,38.61 1310.451,38.61 1273.021,80.541 1273.078,80.541 
			1273.086,80.532 		"/>
		<polygon opacity="0.9" fill="#FFFFFF" points="1310.453,39.722 1310.463,39.722 1310.457,39.717 		"/>
		<polygon opacity="0.7" fill="#FFFFFF" points="1310.453,39.722 1310.463,39.722 1310.457,39.717 		"/>
		<polygon opacity="0.9" fill="#FFFFFF" points="1237.611,38.615 1237.611,38.615 1225.398,52.289 1200.205,80.506 1200.221,80.523 
			1275.221,80.523 1237.65,38.615 1237.65,38.615 1237.631,38.593 		"/>
		<polygon fill="#FFFFFF" points="1178.414,53.723 1164.867,38.603 1164.828,38.603 1127.404,80.533 1202.404,80.533 
			1202.42,80.517 		"/>
		<polygon opacity="0.9" fill="#FFFFFF" points="1164.867,39.722 1164.867,39.722 1164.848,39.701 1164.83,39.722 1164.83,39.722 		
			"/>
		<polygon opacity="0.8" fill="#FFFFFF" points="1164.867,39.722 1164.867,39.722 1164.848,39.701 1164.83,39.722 1164.83,39.722 		
			"/>
		<polygon fill="#FFFFFF" points="1201.297,79.414 1201.328,79.414 1201.312,79.397 		"/>
		<polygon opacity="0.8" fill="#FFFFFF" points="1201.297,79.414 1201.328,79.414 1201.312,79.397 		"/>
		<polygon opacity="0.85" fill="#FFFFFF" points="1054.639,80.538 1054.623,80.538 1054.637,80.555 1129.625,80.555 
			1129.639,80.538 1092.053,38.624 1054.625,80.522 		"/>
		<polygon opacity="0.9" fill="#FFFFFF" points="1019.271,38.61 981.834,80.541 1056.811,80.541 1056.83,80.522 1056.842,80.536 
			1056.85,80.527 1056.85,80.527 1056.85,80.527 1047.932,70.578 1019.281,38.61 		"/>
		<polygon fill="#FFFFFF" points="1019.277,39.717 1019.273,39.722 1019.283,39.722 		"/>
		<polygon opacity="0.6" fill="#FFFFFF" points="1019.277,39.717 1019.273,39.722 1019.283,39.722 		"/>
		<polygon opacity="0.95" fill="#FFFFFF" points="1055.758,79.43 1055.744,79.416 1055.736,79.425 1055.742,79.43 		"/>
		<polygon opacity="0.6" fill="#FFFFFF" points="1055.758,79.43 1055.744,79.416 1055.736,79.425 1055.742,79.43 		"/>
		<polygon opacity="0.9" fill="#FFFFFF" points="946.453,38.61 909.023,80.54 909.024,80.541 983.992,80.541 983.992,80.541 
			983.994,80.538 983.998,80.541 983.998,80.541 984.039,80.541 946.462,38.61 		"/>
		<polygon opacity="0.6" fill="#FFFFFF" points="946.464,39.722 946.464,39.722 946.459,39.717 946.455,39.722 946.455,39.722 		"/>
		<polygon opacity="0.9" fill="#FFFFFF" points="946.464,39.722 946.464,39.722 946.459,39.717 946.455,39.722 946.455,39.722 		"/>
		<polygon fill="#FFFFFF" points="911.176,80.539 911.176,80.539 911.179,80.535 911.182,80.539 911.182,80.539 911.224,80.539 
			911.226,80.539 911.225,80.537 911.225,80.537 873.649,38.613 873.649,38.613 873.644,38.608 873.64,38.613 873.64,38.613 
			861.346,52.382 836.211,80.534 836.215,80.539 		"/>
		<polygon opacity="0.95" fill="#FFFFFF" points="838.374,80.538 838.376,80.541 838.376,80.541 838.41,80.541 838.413,80.537 
			814.175,53.492 800.837,38.61 800.829,38.61 763.397,80.541 838.371,80.541 838.371,80.541 		"/>
		<polygon opacity="0.98" fill="#FFFFFF" points="800.839,39.722 800.839,39.722 800.835,39.717 800.831,39.722 800.831,39.722 		
			"/>
		<polygon opacity="0.7" fill="#FFFFFF" points="800.839,39.722 800.839,39.722 800.835,39.717 800.831,39.722 800.831,39.722 		"/>
		<polygon fill="#FFFFFF" points="837.312,79.426 837.309,79.43 837.315,79.43 		"/>
		<polygon opacity="0.7" fill="#FFFFFF" points="837.312,79.426 837.309,79.43 837.315,79.43 		"/>
		<polygon fill="#FFFFFF" points="690.583,80.541 765.553,80.541 765.553,80.541 765.556,80.538 765.559,80.541 765.559,80.541 
			765.592,80.541 728.013,38.61 728.004,38.61 690.577,80.535 690.577,80.535 690.577,80.535 		"/>
		<polygon opacity="0.9" fill="#FFFFFF" points="728.015,39.722 728.015,39.722 728.011,39.717 728.006,39.722 728.006,39.722 		"/>
		<polygon opacity="0.85" fill="#FFFFFF" points="728.015,39.722 728.015,39.722 728.011,39.717 728.006,39.722 728.006,39.722 		
			"/>
		<polygon opacity="0.9" fill="#FFFFFF" points="692.76,80.522 692.776,80.54 692.781,80.535 687.008,74.094 655.208,38.61 
			655.199,38.61 617.766,80.541 692.743,80.541 692.743,80.541 		"/>
		<polygon opacity="0.9" fill="#FFFFFF" points="655.209,39.722 655.209,39.722 655.205,39.717 655.201,39.722 655.201,39.722 		"/>
		<polygon opacity="0.8" fill="#FFFFFF" points="655.209,39.722 655.209,39.722 655.205,39.717 655.201,39.722 655.201,39.722 		"/>
		<polygon opacity="0.85" fill="#FFFFFF" points="691.684,79.43 691.678,79.424 691.674,79.429 691.675,79.43 691.675,79.43 		"/>
		<polygon opacity="0.8" fill="#FFFFFF" points="691.684,79.43 691.678,79.424 691.674,79.429 691.675,79.43 691.675,79.43 		"/>
		<polygon opacity="0.85" fill="#FFFFFF" points="582.28,38.601 544.87,80.531 619.885,80.531 582.33,38.601 		"/>
		<polygon opacity="0.65" fill="#FFFFFF" points="582.308,39.696 582.284,39.722 582.331,39.722 		"/>
		<polygon opacity="0.95" fill="#FFFFFF" points="582.308,39.696 582.284,39.722 582.331,39.722 		"/>
		<polygon opacity="0.9" fill="#FFFFFF" points="472.084,80.535 472.1,80.518 472.132,80.555 547.088,80.555 509.493,38.624 
			472.073,80.521 		"/>
		<polygon opacity="0.8" fill="#FFFFFF" points="473.173,79.43 473.159,79.445 473.182,79.445 473.196,79.43 		"/>
		<polygon fill="#FFFFFF" points="474.292,80.526 441.267,43.68 436.723,38.61 436.714,38.61 399.277,80.541 474.278,80.541 
			474.278,80.541 		"/>
		<polygon opacity="0.8" fill="#FFFFFF" points="436.725,39.722 436.725,39.722 436.721,39.717 436.716,39.722 436.716,39.722 		"/>
		<polygon opacity="0.75" fill="#FFFFFF" points="436.725,39.722 436.725,39.722 436.721,39.717 436.716,39.722 436.716,39.722 		
			"/>
		<polygon opacity="0.8" fill="#FFFFFF" points="473.173,79.43 473.196,79.43 473.198,79.427 473.188,79.415 		"/>
		<polygon opacity="0.75" fill="#FFFFFF" points="473.173,79.43 473.196,79.43 473.198,79.427 473.188,79.415 		"/>
		<polygon opacity="0.85" fill="#FFFFFF" points="363.845,38.603 326.429,80.533 326.435,80.533 326.438,80.53 326.44,80.533 
			401.444,80.533 363.883,38.603 		"/>
		<polygon opacity="0.4" fill="#FFFFFF" points="363.884,39.722 363.865,39.701 363.847,39.722 363.847,39.722 		"/>
		<polygon opacity="0.7" fill="#FFFFFF" points="363.884,39.722 363.865,39.701 363.847,39.722 363.847,39.722 		"/>
		<polygon opacity="0.9" fill="#FFFFFF" points="253.615,80.522 253.632,80.541 253.632,80.541 328.606,80.541 291.03,38.61 
			291.021,38.61 253.591,80.541 253.597,80.541 253.597,80.541 		"/>
		<polygon opacity="0.9" fill="#FFFFFF" points="291.032,39.722 291.032,39.722 291.028,39.717 291.023,39.722 291.023,39.722 		"/>
		<polygon opacity="0.95" fill="#FFFFFF" points="291.032,39.722 291.032,39.722 291.028,39.717 291.023,39.722 291.023,39.722 		
			"/>
		<polygon fill="#FFFFFF" points="218.219,38.615 218.199,38.615 180.792,80.505 180.809,80.523 180.809,80.523 255.808,80.523 
			218.219,38.593 218.209,38.603 		"/>
		<polygon opacity="0.6" fill="#FFFFFF" points="218.221,39.722 218.212,39.711 218.203,39.722 218.203,39.722 		"/>
		<polygon opacity="0.85" fill="#FFFFFF" points="218.221,39.722 218.212,39.711 218.203,39.722 218.203,39.722 		"/>
		<polygon opacity="0.9" fill="#FFFFFF" points="108.007,80.541 108.007,80.541 182.984,80.541 182.987,80.537 158.734,53.486 
			145.397,38.61 145.387,38.61 139.062,45.694 107.972,80.503 		"/>
		<polygon opacity="0.25" fill="#FFFFFF" points="145.399,39.722 145.399,39.722 145.395,39.717 145.391,39.722 145.391,39.722 		
			"/>
		<polygon opacity="0.5" fill="#FFFFFF" points="145.399,39.722 145.399,39.722 145.395,39.717 145.391,39.722 145.391,39.722 		"/>
		<polygon fill="#FFFFFF" points="72.576,38.613 72.576,38.613 35.139,80.535 35.143,80.539 35.143,80.539 110.139,80.539 
			110.154,80.521 88.483,56.348 72.584,38.613 72.584,38.613 72.58,38.608 		"/>
		<polygon opacity="0.9" fill="#FFFFFF" points="37.472,80.535 37.486,80.52 37.502,80.535 37.502,80.535 37.517,80.535 
			-1.471,38.604 -1.491,38.604 -1.491,80.535 37.472,80.535 		"/>
		<polygon fill="#FFFFFF" points="1783.953,78.32 1783.945,78.32 1746.479,120.25 1821.359,120.25 1821.43,120.171 
			1821.494,120.171 1805.051,101.839 		"/>
		<polygon opacity="0.2" fill="#FFFFFF" points="1783.947,79.43 1783.953,79.43 1783.949,79.427 		"/>
		<polygon opacity="0.5" fill="#FFFFFF" points="1783.947,79.43 1783.953,79.43 1783.949,79.427 		"/>
		<polygon opacity="0.8" fill="#FFFFFF" points="1819.316,120.212 1891.518,120.212 1894.332,120.208 1856.766,78.281 		"/>
		<polygon opacity="0.9" fill="#FFFFFF" points="1711.102,78.314 1691.652,100.105 1673.678,120.243 1673.678,120.243 
			1673.678,120.243 1673.678,120.244 1673.678,120.244 1748.514,120.244 1748.574,120.176 1748.637,120.244 1748.637,120.244 
			1748.693,120.244 1711.125,78.314 		"/>
		<polygon opacity="0.7" fill="#FFFFFF" points="1711.115,79.417 1711.104,79.43 1711.127,79.43 		"/>
		<polygon opacity="0.7" fill="#FFFFFF" points="1711.115,79.417 1711.104,79.43 1711.127,79.43 		"/>
		<polygon opacity="0.9" fill="#FFFFFF" points="1675.877,120.238 1638.307,78.318 1600.871,120.248 1675.684,120.248 
			1675.756,120.17 1675.826,120.248 1675.826,120.248 1675.887,120.248 1675.877,120.239 		"/>
		<polygon opacity="0.8" fill="#FFFFFF" points="1565.434,78.312 1528.014,120.242 1602.865,120.242 1602.865,120.242 
			1602.922,120.179 1602.977,120.242 1603.029,120.242 1565.467,78.312 		"/>
		<polygon opacity="0.8" fill="#FFFFFF" points="1565.469,79.43 1565.451,79.411 1565.436,79.43 1565.436,79.43 		"/>
		<polygon opacity="0.2" fill="#FFFFFF" points="1565.469,79.43 1565.451,79.411 1565.436,79.43 1565.436,79.43 		"/>
		<polygon opacity="0.9" fill="#FFFFFF" points="1530.152,120.252 1530.152,120.252 1530.215,120.252 1492.662,78.322 
			1492.607,78.322 1455.199,120.252 1530.029,120.252 1530.09,120.185 		"/>
		<polygon opacity="0.8" fill="#FFFFFF" points="1492.609,79.445 1492.664,79.445 1492.637,79.416 		"/>
		<polygon opacity="0.8" fill="#FFFFFF" points="1492.609,79.445 1492.664,79.445 1492.637,79.416 		"/>
		<polygon opacity="0.95" fill="#FFFFFF" points="1419.822,78.32 1382.391,120.25 1457.197,120.25 1457.197,120.25 1457.27,120.171 
			1457.34,120.25 1457.34,120.25 1457.406,120.25 1419.828,78.32 		"/>
		<polygon opacity="0.4" fill="#FFFFFF" points="1419.828,79.427 1419.824,79.43 1419.83,79.43 		"/>
		<polygon opacity="0.85" fill="#FFFFFF" points="1419.828,79.427 1419.824,79.43 1419.83,79.43 		"/>
		<polygon fill="#FFFFFF" points="1309.564,120.243 1309.551,120.243 1309.545,120.25 1384.379,120.25 1384.379,120.25 
			1384.451,120.171 1384.521,120.25 1384.521,120.25 1384.559,120.25 1346.98,78.32 1346.975,78.32 1319.523,109.071 
			1309.557,120.237 		"/>
		<polygon opacity="0.4" fill="#FFFFFF" points="1346.977,79.43 1346.982,79.43 1346.98,79.427 		"/>
		<polygon opacity="0.8" fill="#FFFFFF" points="1346.977,79.43 1346.982,79.43 1346.98,79.427 		"/>
		<polygon opacity="0.85" fill="#FFFFFF" points="1311.711,120.246 1311.752,120.246 1311.758,120.24 1274.188,78.316 
			1274.172,78.316 1236.744,120.246 1311.582,120.246 1311.645,120.174 		"/>
		<polygon opacity="0.7" fill="#FFFFFF" points="1274.189,79.43 1274.189,79.43 1274.182,79.421 1274.174,79.43 1274.174,79.43 		
			"/>
		<polygon opacity="0.4" fill="#FFFFFF" points="1274.189,79.43 1274.189,79.43 1274.182,79.421 1274.174,79.43 1274.174,79.43 		
			"/>
		<polygon opacity="0.8" fill="#FFFFFF" points="1310.662,119.135 1310.654,119.128 1310.654,119.128 1310.654,119.128 
			1310.648,119.135 1310.648,119.135 		"/>
		<polygon opacity="0.4" fill="#FFFFFF" points="1310.662,119.135 1310.654,119.128 1310.654,119.128 1310.654,119.128 
			1310.648,119.135 1310.648,119.135 		"/>
		<polygon opacity="0.9" fill="#FFFFFF" points="1238.814,120.17 1238.887,120.248 1238.887,120.248 1238.949,120.248 
			1201.367,78.318 1163.936,120.248 1238.744,120.248 1238.744,120.248 		"/>
		<polygon fill="#FFFFFF" points="1128.533,78.337 1128.504,78.337 1091.102,120.232 1091.104,120.233 1091.102,120.233 
			1091.086,120.248 1165.93,120.248 1165.93,120.248 1166.002,120.17 1166.074,120.248 1166.074,120.248 1166.102,120.248 
			1128.52,78.318 1128.518,78.321 		"/>
		<polygon opacity="0.95" fill="#FFFFFF" points="1128.535,79.445 1128.52,79.43 1128.52,79.43 1128.52,79.43 1128.506,79.445 
			1128.506,79.445 		"/>
		<polygon opacity="0.4" fill="#FFFFFF" points="1128.535,79.445 1128.52,79.43 1128.52,79.43 1128.52,79.43 1128.506,79.445 
			1128.506,79.445 		"/>
		<polygon fill="#FFFFFF" points="1055.754,78.328 1055.717,78.328 1055.73,78.312 1055.705,78.312 1018.285,120.242 
			1093.137,120.242 1093.137,120.242 1093.191,120.179 1093.248,120.242 1093.301,120.242 1093.301,120.24 		"/>
		<polygon opacity="0.95" fill="#FFFFFF" points="1055.719,79.445 1055.756,79.445 1055.756,79.445 1055.742,79.43 1055.732,79.43 
					"/>
		<polygon opacity="0.6" fill="#FFFFFF" points="1055.719,79.445 1055.756,79.445 1055.756,79.445 1055.742,79.43 1055.732,79.43 		
			"/>
		<polygon opacity="0.6" fill="#FFFFFF" points="1055.732,79.43 1055.736,79.425 1055.725,79.411 1055.707,79.43 1055.707,79.43 		
			"/>
		<polygon opacity="0.6" fill="#FFFFFF" points="1055.732,79.43 1055.736,79.425 1055.725,79.411 1055.707,79.43 1055.707,79.43 		
			"/>
		<polygon opacity="0.95" fill="#FFFFFF" points="1055.742,79.43 1055.736,79.425 1055.732,79.43 		"/>
		<polygon opacity="0.6" fill="#FFFFFF" points="1055.742,79.43 1055.736,79.425 1055.732,79.43 		"/>
		<polygon opacity="0.6" fill="#FFFFFF" points="1055.742,79.43 1055.736,79.425 1055.732,79.43 		"/>
		<polygon opacity="0.4" fill="#FFFFFF" points="1092.203,119.125 1092.201,119.124 1092.201,119.124 1092.201,119.124 
			1092.201,119.125 1092.201,119.125 		"/>
		<polygon opacity="0.6" fill="#FFFFFF" points="1092.203,119.125 1092.201,119.124 1092.201,119.124 1092.201,119.124 
			1092.201,119.125 1092.201,119.125 		"/>
		<polygon opacity="0.95" fill="#FFFFFF" points="982.891,78.32 945.46,120.248 945.461,120.25 1020.299,120.25 1020.299,120.25 
			1020.369,120.171 1020.441,120.25 1020.441,120.25 1020.475,120.25 982.896,78.32 		"/>
		<polygon opacity="0.9" fill="#FFFFFF" points="982.895,79.427 982.893,79.43 982.898,79.43 		"/>
		<polygon opacity="0.9" fill="#FFFFFF" points="982.895,79.427 982.893,79.43 982.898,79.43 		"/>
		<polygon opacity="0.95" fill="#FFFFFF" points="910.08,78.32 910.074,78.32 872.647,120.244 872.651,120.25 947.481,120.25 
			947.552,120.171 947.624,120.25 947.624,120.25 947.661,120.25 947.662,120.248 		"/>
		<polygon fill="#FFFFFF" points="910.077,79.43 910.083,79.43 910.08,79.427 		"/>
		<polygon opacity="0.6" fill="#FFFFFF" points="910.077,79.43 910.083,79.43 910.08,79.427 		"/>
		<polygon opacity="0.9" fill="#FFFFFF" points="946.56,119.14 946.561,119.14 946.561,119.139 		"/>
		<polygon opacity="0.6" fill="#FFFFFF" points="946.56,119.14 946.561,119.14 946.561,119.139 		"/>
		<polygon opacity="0.85" fill="#FFFFFF" points="874.74,120.171 874.811,120.25 874.811,120.25 874.845,120.25 874.85,120.244 
			837.274,78.32 837.269,78.32 799.835,120.25 874.668,120.25 		"/>
		<polygon opacity="0.7" fill="#FFFFFF" points="837.271,79.43 837.276,79.43 837.273,79.427 		"/>
		<polygon opacity="0.8" fill="#FFFFFF" points="837.271,79.43 837.276,79.43 837.273,79.427 		"/>
		<polygon opacity="0.6" fill="#FFFFFF" points="873.744,119.14 873.752,119.14 873.748,119.136 		"/>
		<polygon opacity="0.8" fill="#FFFFFF" points="873.744,119.14 873.752,119.14 873.748,119.136 		"/>
		<polygon fill="#FFFFFF" points="764.451,78.32 752.102,92.153 727.038,120.232 727.04,120.234 727.035,120.234 727.021,120.25 
			801.854,120.25 801.926,120.171 801.997,120.25 801.997,120.25 802.036,120.25 764.457,78.32 		"/>
		<polygon opacity="0.85" fill="#FFFFFF" points="764.456,79.427 764.453,79.43 764.458,79.43 		"/>
		<polygon opacity="0.9" fill="#FFFFFF" points="764.456,79.427 764.453,79.43 764.458,79.43 		"/>
		<polygon opacity="0.95" fill="#FFFFFF" points="654.226,120.242 729.047,120.242 729.047,120.242 729.103,120.179 729.16,120.242 
			729.235,120.242 729.235,120.242 729.238,120.24 697.057,84.323 691.674,78.312 691.671,78.312 691.638,78.312 683.436,87.504 
			654.223,120.238 654.223,120.238 654.223,120.238 		"/>
		<polygon opacity="0.8" fill="#FFFFFF" points="691.658,79.411 691.641,79.43 691.673,79.43 691.674,79.429 		"/>
		<polygon opacity="0.95" fill="#FFFFFF" points="691.658,79.411 691.641,79.43 691.673,79.43 691.674,79.429 		"/>
		<polygon opacity="0.85" fill="#FFFFFF" points="691.673,79.43 691.675,79.43 691.674,79.429 		"/>
		<polygon opacity="0.8" fill="#FFFFFF" points="691.673,79.43 691.675,79.43 691.674,79.429 		"/>
		<polygon opacity="0.95" fill="#FFFFFF" points="691.673,79.43 691.675,79.43 691.674,79.429 		"/>
		<polygon opacity="0.9" fill="#FFFFFF" points="728.136,119.123 728.136,119.123 728.136,119.123 728.133,119.125 728.138,119.125 
					"/>
		<polygon opacity="0.95" fill="#FFFFFF" points="728.136,119.123 728.136,119.123 728.136,119.123 728.133,119.125 
			728.138,119.125 		"/>
		<polygon opacity="0.9" fill="#FFFFFF" points="656.296,120.17 656.353,120.233 656.421,120.233 656.425,120.229 618.845,78.303 
			581.41,120.233 656.24,120.233 656.24,120.233 		"/>
		<polygon opacity="0.95" fill="#FFFFFF" points="655.321,119.125 655.328,119.125 655.325,119.121 		"/>
		<polygon opacity="0.95" fill="#FFFFFF" points="655.321,119.125 655.328,119.125 655.325,119.121 		"/>
		<polygon fill="#FFFFFF" points="508.587,120.233 583.414,120.233 583.414,120.233 583.471,120.17 583.527,120.233 
			583.592,120.233 546.005,78.303 508.577,120.223 		"/>
		<polygon opacity="0.85" fill="#FFFFFF" points="510.638,120.187 510.695,120.25 510.776,120.25 510.786,120.238 473.243,78.32 
			473.178,78.32 435.771,120.25 510.581,120.25 510.581,120.25 		"/>
		<polygon opacity="0.8" fill="#FFFFFF" points="473.244,79.445 473.244,79.445 473.213,79.411 473.198,79.427 473.201,79.43 
			473.196,79.43 473.182,79.445 473.182,79.445 		"/>
		<polygon opacity="0.6" fill="#FFFFFF" points="473.244,79.445 473.244,79.445 473.213,79.411 473.198,79.427 473.201,79.43 
			473.196,79.43 473.182,79.445 473.182,79.445 		"/>
		<polygon opacity="0.8" fill="#FFFFFF" points="473.201,79.43 473.198,79.427 473.196,79.43 		"/>
		<polygon opacity="0.75" fill="#FFFFFF" points="473.201,79.43 473.198,79.427 473.196,79.43 		"/>
		<polygon opacity="0.6" fill="#FFFFFF" points="473.201,79.43 473.198,79.427 473.196,79.43 		"/>
		<polygon opacity="0.9" fill="#FFFFFF" points="509.682,119.114 509.682,119.114 509.671,119.125 509.692,119.125 509.682,119.114 
					"/>
		<polygon opacity="0.6" fill="#FFFFFF" points="509.682,119.114 509.682,119.114 509.671,119.125 509.692,119.125 509.682,119.114 
					"/>
		<polygon opacity="0.95" fill="#FFFFFF" points="437.755,120.233 437.812,120.17 437.868,120.233 437.93,120.233 400.349,78.303 
			362.916,120.233 437.755,120.233 		"/>
		<polygon opacity="0.95" fill="#FFFFFF" points="327.532,78.305 290.1,120.235 364.931,120.235 364.931,120.235 364.986,120.171 
			365.042,120.235 365.114,120.235 327.537,78.305 		"/>
		<polygon opacity="0.7" fill="#FFFFFF" points="327.534,79.414 327.534,79.414 327.539,79.414 327.539,79.414 327.536,79.411 		"/>
		<polygon opacity="0.95" fill="#FFFFFF" points="327.534,79.414 327.534,79.414 327.539,79.414 327.539,79.414 327.536,79.411 		
			"/>
		<polygon opacity="0.85" fill="#FFFFFF" points="292.166,120.179 292.222,120.242 292.291,120.242 254.727,78.312 254.693,78.312 
			217.276,120.242 292.109,120.242 292.109,120.242 		"/>
		<polygon opacity="0.95" fill="#FFFFFF" points="254.695,79.43 254.729,79.43 254.712,79.411 		"/>
		<polygon opacity="0.5" fill="#FFFFFF" points="254.695,79.43 254.729,79.43 254.712,79.411 		"/>
		<polygon opacity="0.9" fill="#FFFFFF" points="181.881,78.306 181.897,78.288 181.897,78.287 181.867,78.319 181.871,78.323 
			181.864,78.323 144.462,120.218 219.285,120.218 219.285,120.218 219.326,120.172 219.367,120.218 219.367,120.218 
			219.477,120.218 181.915,78.306 		"/>
		<polygon opacity="0.85" fill="#FFFFFF" points="181.899,79.396 181.883,79.414 181.916,79.414 181.899,79.396 181.899,79.396 		
			"/>
		<polygon opacity="0.7" fill="#FFFFFF" points="181.899,79.396 181.883,79.414 181.916,79.414 181.899,79.396 181.899,79.396 		"/>
		<rect x="181.868" y="79.427" opacity="0.5" fill="#FFFFFF" width="0.005" height="0.005"/>
		<rect x="181.868" y="79.427" opacity="0.7" fill="#FFFFFF" width="0.005" height="0.005"/>
		<polygon opacity="0.5" fill="#FFFFFF" points="109.059,79.427 109.089,79.394 109.076,79.38 109.046,79.413 109.046,79.413 
			109.046,79.413 		"/>
		<polygon opacity="0.9" fill="#FFFFFF" points="109.06,78.796 109.054,78.796 109.029,78.796 72.141,119.729 145.992,119.729 
			146.018,119.697 146.045,119.729 146.156,119.729 109.122,78.796 		"/>
		<polygon opacity="0.5" fill="#FFFFFF" points="109.123,79.43 109.089,79.394 109.059,79.427 109.061,79.43 		"/>
		<polygon opacity="0.5" fill="#FFFFFF" points="109.123,79.43 109.089,79.394 109.059,79.427 109.061,79.43 		"/>
		<polygon fill="#FFFFFF" points="109.056,79.43 109.061,79.43 109.059,79.427 109.046,79.413 109.031,79.43 109.031,79.43 		"/>
		<polygon opacity="0.5" fill="#FFFFFF" points="109.056,79.43 109.061,79.43 109.059,79.427 109.046,79.413 109.031,79.43 
			109.031,79.43 		"/>
		<polygon opacity="0.75" fill="#FFFFFF" points="36.25,78.286 36.245,78.286 36.248,78.283 36.246,78.281 36.241,78.275 
			36.211,78.275 -1.273,120.206 73.742,120.206 		"/>
		<polygon fill="#FFFFFF" points="36.248,79.427 36.248,79.427 36.245,79.43 36.25,79.43 36.248,79.427 		"/>
		<polygon opacity="0.75" fill="#FFFFFF" points="36.248,79.427 36.248,79.427 36.245,79.43 36.25,79.43 36.248,79.427 		"/>
		<polygon opacity="0.9" fill="#FFFFFF" points="36.212,79.419 36.241,79.419 36.227,79.403 		"/>
		<polygon opacity="0.75" fill="#FFFFFF" points="36.212,79.419 36.241,79.419 36.227,79.403 		"/>
		<polygon opacity="0.9" fill="#FFFFFF" points="1820.223,117.971 1786.285,156.056 1782.859,159.9 1857.875,159.9 
			1820.363,117.971 		"/>
		<polygon opacity="0.5" fill="#FFFFFF" points="1820.227,119.14 1820.363,119.14 1820.295,119.065 1820.227,119.14 		"/>
		<polygon opacity="0.9" fill="#FFFFFF" points="1820.227,119.14 1820.363,119.14 1820.295,119.065 1820.227,119.14 		"/>
		<polygon opacity="0.8" fill="#FFFFFF" points="1747.414,117.965 1714.885,154.459 1710.041,159.896 1785.057,159.896 
			1747.539,117.965 		"/>
		<polygon opacity="0.7" fill="#FFFFFF" points="1747.418,119.131 1747.418,119.131 1747.539,119.131 1747.479,119.065 		"/>
		<polygon opacity="0.4" fill="#FFFFFF" points="1747.418,119.131 1747.418,119.131 1747.539,119.131 1747.479,119.065 		"/>
		<polygon opacity="0.85" fill="#FFFFFF" points="1674.586,117.971 1640.65,156.056 1637.225,159.9 1712.24,159.9 1674.729,117.971 
					"/>
		<polygon fill="#FFFFFF" points="1674.59,119.14 1674.59,119.14 1674.729,119.14 1674.66,119.065 		"/>
		<polygon opacity="0.8" fill="#FFFFFF" points="1674.59,119.14 1674.59,119.14 1674.729,119.14 1674.66,119.065 		"/>
		<polygon fill="#FFFFFF" points="1601.881,117.963 1601.768,117.963 1564.391,159.894 1639.404,159.894 1613.488,130.935 		"/>
		<polygon opacity="0.2" fill="#FFFFFF" points="1601.771,119.125 1601.881,119.125 1601.881,119.125 1601.826,119.065 		"/>
		<polygon opacity="0.9" fill="#FFFFFF" points="1601.771,119.125 1601.881,119.125 1601.881,119.125 1601.826,119.065 		"/>
		<polygon opacity="0.85" fill="#FFFFFF" points="1528.932,117.965 1495.619,155.339 1491.559,159.896 1566.572,159.896 
			1529.055,117.965 		"/>
		<polygon opacity="0.8" fill="#FFFFFF" points="1529.055,119.13 1528.994,119.065 1528.936,119.13 1528.936,119.13 		"/>
		<polygon opacity="0.6" fill="#FFFFFF" points="1529.055,119.13 1528.994,119.065 1528.936,119.13 1528.936,119.13 		"/>
		<polygon fill="#FFFFFF" points="1456.102,117.971 1418.738,159.9 1493.752,159.9 1456.244,117.971 		"/>
		<polygon opacity="0.85" fill="#FFFFFF" points="1456.105,119.14 1456.244,119.14 1456.176,119.065 		"/>
		<polygon opacity="0.9" fill="#FFFFFF" points="1456.105,119.14 1456.244,119.14 1456.176,119.065 		"/>
		<polygon opacity="0.9" fill="#FFFFFF" points="1383.279,117.971 1345.916,159.9 1420.932,159.9 1383.424,117.971 		"/>
		<polygon opacity="0.8" fill="#FFFFFF" points="1383.285,119.14 1383.424,119.14 1383.355,119.065 		"/>
		<polygon opacity="0.9" fill="#FFFFFF" points="1383.285,119.14 1383.424,119.14 1383.355,119.065 		"/>
		<polygon opacity="0.85" fill="#FFFFFF" points="1310.609,117.967 1310.479,117.967 1294.398,136.01 1273.107,159.897 
			1348.123,159.897 1331.951,141.822 		"/>
		<polygon opacity="0.4" fill="#FFFFFF" points="1310.609,119.135 1310.609,119.135 1310.545,119.065 1310.482,119.135 
			1310.482,119.135 		"/>
		<polygon opacity="0.6" fill="#FFFFFF" points="1310.609,119.135 1310.609,119.135 1310.545,119.065 1310.482,119.135 
			1310.482,119.135 		"/>
		<polygon opacity="0.9" fill="#FFFFFF" points="1237.648,117.971 1200.285,159.9 1275.301,159.9 1237.791,117.971 		"/>
		<polygon opacity="0.7" fill="#FFFFFF" points="1237.652,119.14 1237.791,119.14 1237.721,119.065 		"/>
		<polygon opacity="0.9" fill="#FFFFFF" points="1237.652,119.14 1237.791,119.14 1237.721,119.065 		"/>
		<polygon opacity="0.8" fill="#FFFFFF" points="1164.832,117.971 1127.467,159.9 1202.482,159.9 1164.975,117.971 		"/>
		<polygon opacity="0.4" fill="#FFFFFF" points="1164.836,119.14 1164.975,119.14 1164.904,119.065 		"/>
		<polygon opacity="0.4" fill="#FFFFFF" points="1164.836,119.14 1164.975,119.14 1164.904,119.065 		"/>
		<polygon fill="#FFFFFF" points="1092.15,117.997 1092.15,117.997 1092.094,117.933 1092.037,117.997 1054.66,159.863 
			1129.676,159.863 1103.756,130.947 		"/>
		<polygon opacity="0.85" fill="#FFFFFF" points="1019.199,117.971 981.834,159.9 1056.85,159.9 1019.342,117.971 		"/>
		<polygon opacity="0.9" fill="#FFFFFF" points="1019.203,119.14 1019.342,119.14 1019.271,119.065 		"/>
		<polygon opacity="0.85" fill="#FFFFFF" points="1019.203,119.14 1019.342,119.14 1019.271,119.065 		"/>
		<polygon opacity="0.9" fill="#FFFFFF" points="946.452,117.933 946.381,118.014 946.381,118.014 931.613,134.557 909.019,159.863 
			984.033,159.863 946.523,118.014 		"/>
		<polygon opacity="0.9" fill="#FFFFFF" points="873.71,117.971 873.567,117.971 858.521,134.855 836.203,159.9 911.218,159.9 
			888.869,134.916 		"/>
		<polygon opacity="0.8" fill="#FFFFFF" points="873.572,119.14 873.572,119.14 873.71,119.14 873.641,119.065 		"/>
		<polygon opacity="0.9" fill="#FFFFFF" points="873.572,119.14 873.572,119.14 873.71,119.14 873.641,119.065 		"/>
		<polygon fill="#FFFFFF" points="800.899,117.971 800.756,117.971 785.709,134.855 763.394,159.9 838.409,159.9 816.004,134.855 		
			"/>
		<polygon opacity="0.9" fill="#FFFFFF" points="800.761,119.14 800.761,119.14 800.899,119.14 800.83,119.065 		"/>
		<polygon opacity="0.7" fill="#FFFFFF" points="800.761,119.14 800.761,119.14 800.899,119.14 800.83,119.065 		"/>
		<polygon opacity="0.9" fill="#FFFFFF" points="727.947,117.963 690.569,159.894 765.584,159.894 728.06,117.963 		"/>
		<polygon opacity="0.95" fill="#FFFFFF" points="727.951,119.125 728.06,119.125 728.06,119.125 728.005,119.065 		"/>
		<polygon opacity="0.7" fill="#FFFFFF" points="727.951,119.125 728.06,119.125 728.06,119.125 728.005,119.065 		"/>
		<polygon opacity="0.8" fill="#FFFFFF" points="655.141,117.963 617.763,159.894 692.778,159.894 655.254,117.963 		"/>
		<polygon opacity="0.95" fill="#FFFFFF" points="655.145,119.125 655.254,119.125 655.254,119.125 655.2,119.065 		"/>
		<polygon opacity="0.85" fill="#FFFFFF" points="655.145,119.125 655.254,119.125 655.254,119.125 655.2,119.065 		"/>
		<polygon opacity="0.9" fill="#FFFFFF" points="582.31,117.963 544.933,159.894 619.948,159.894 582.424,117.963 		"/>
		<polygon opacity="0.9" fill="#FFFFFF" points="582.315,119.125 582.424,119.125 582.424,119.125 582.37,119.065 		"/>
		<polygon opacity="0.8" fill="#FFFFFF" points="582.315,119.125 582.424,119.125 582.424,119.125 582.37,119.065 		"/>
		<polygon opacity="0.85" fill="#FFFFFF" points="509.479,117.963 472.101,159.894 547.116,159.894 509.592,117.963 		"/>
		<polygon opacity="0.6" fill="#FFFFFF" points="509.483,119.125 509.592,119.125 509.592,119.125 509.538,119.065 		"/>
		<polygon opacity="0.95" fill="#FFFFFF" points="509.483,119.125 509.592,119.125 509.592,119.125 509.538,119.065 		"/>
		<polygon opacity="0.9" fill="#FFFFFF" points="436.656,117.963 399.278,159.894 474.293,159.894 436.77,117.963 		"/>
		<polygon opacity="0.95" fill="#FFFFFF" points="436.661,119.125 436.77,119.125 436.77,119.125 436.715,119.065 		"/>
		<polygon opacity="0.85" fill="#FFFFFF" points="436.661,119.125 436.77,119.125 436.77,119.125 436.715,119.065 		"/>
		<polygon opacity="0.9" fill="#FFFFFF" points="363.832,117.963 326.455,159.894 401.469,159.894 363.944,117.963 		"/>
		<polygon opacity="0.95" fill="#FFFFFF" points="363.836,119.125 363.945,119.125 363.945,119.125 363.891,119.065 		"/>
		<polygon opacity="0.9" fill="#FFFFFF" points="363.836,119.125 363.945,119.125 363.945,119.125 363.891,119.065 		"/>
		<polygon opacity="0.9" fill="#FFFFFF" points="291.011,117.963 253.632,159.894 328.647,159.894 291.124,117.963 		"/>
		<polygon opacity="0.5" fill="#FFFFFF" points="291.015,119.125 291.124,119.125 291.124,119.125 291.069,119.065 		"/>
		<polygon opacity="0.7" fill="#FFFFFF" points="291.015,119.125 291.124,119.125 291.124,119.125 291.069,119.065 		"/>
		<polygon opacity="0.9" fill="#FFFFFF" points="218.271,117.955 218.188,117.955 180.794,159.886 255.809,159.886 229.371,130.354 
					"/>
		<polygon opacity="0.7" fill="#FFFFFF" points="218.191,119.109 218.271,119.109 218.231,119.065 		"/>
		<polygon opacity="0.9" fill="#FFFFFF" points="218.191,119.109 218.271,119.109 218.231,119.065 		"/>
		<polygon opacity="0.9" fill="#FFFFFF" points="145.392,117.947 125.115,140.677 107.984,159.878 182.999,159.878 145.446,117.947 
					"/>
		<polygon opacity="0.5" fill="#FFFFFF" points="145.395,119.094 145.395,119.094 145.447,119.094 145.447,119.094 145.421,119.065 
					"/>
		<polygon opacity="0.8" fill="#FFFFFF" points="145.395,119.094 145.395,119.094 145.447,119.094 145.447,119.094 145.421,119.065 
					"/>
		<polygon opacity="0.8" fill="#FFFFFF" points="35.156,159.863 110.171,159.863 72.589,117.933 		"/>
		<polygon opacity="0.9" fill="#FFFFFF" points="-1.513,117.938 -1.513,159.863 37.495,159.863 -1.508,117.933 		"/>
		<polygon opacity="0.95" fill="#FFFFFF" points="1893.107,119.065 1890.424,119.065 1890.424,119.065 1820.498,119.065 
			1820.498,119.065 1820.357,119.065 1820.357,119.065 1820.295,119.065 1820.363,119.14 1856.732,158.731 1856.816,158.731 
			1893.109,119.067 		"/>
		<polygon opacity="0.95" fill="#FFFFFF" points="655.328,119.125 655.321,119.125 655.254,119.125 691.636,158.731 
			691.709,158.731 727.951,119.125 		"/>
		
			<rect x="646.555" y="138.928" transform="matrix(-0.6765 -0.7365 0.7365 -0.6765 1026.7073 728.8733)" opacity="0.85" fill="#FFFFFF" width="53.78" height="0"/>
		
			<rect x="646.555" y="138.928" transform="matrix(-0.6765 -0.7365 0.7365 -0.6765 1026.7073 728.8733)" opacity="0.9" fill="#FFFFFF" width="53.78" height="0"/>
		<polygon opacity="0.95" fill="#FFFFFF" points="752.465,92.531 764.453,79.43 691.684,79.43 691.675,79.43 696.901,85.12 
			728.136,119.123 		"/>
		<polygon opacity="0.9" fill="#FFFFFF" points="728.136,119.123 752.465,92.531 728.136,119.123 		"/>
		<polygon opacity="0.9" fill="#FFFFFF" points="728.136,119.123 752.465,92.531 728.136,119.123 		"/>
		<polygon opacity="0.95" fill="#FFFFFF" points="696.901,85.12 728.136,119.123 728.136,119.123 		"/>
		<polygon opacity="0.9" fill="#FFFFFF" points="696.901,85.12 728.136,119.123 728.136,119.123 		"/>
		<rect x="728.136" y="119.123" opacity="0.9" fill="#FFFFFF" width="0" height="0"/>
		<rect x="728.136" y="119.123" opacity="0.95" fill="#FFFFFF" width="0" height="0"/>
		<rect x="728.136" y="119.123" opacity="0.9" fill="#FFFFFF" width="0" height="0"/>
		<polygon opacity="0.95" fill="#FFFFFF" points="946.561,119.14 946.56,119.14 946.523,119.14 982.891,158.731 982.975,158.731 
			1019.203,119.14 		"/>
		<polygon opacity="0.95" fill="#FFFFFF" points="800.761,119.14 728.119,119.14 728.133,119.125 728.06,119.125 764.443,158.731 
			764.535,158.731 786.172,135.083 		"/>
		<polygon opacity="0.7" fill="#FFFFFF" points="786.172,135.083 800.761,119.14 800.761,119.14 		"/>
		<polygon opacity="0.9" fill="#FFFFFF" points="786.172,135.083 800.761,119.14 800.761,119.14 		"/>
		
			<rect x="719.361" y="138.928" transform="matrix(-0.6765 -0.7364 0.7364 -0.6765 1148.7791 782.4838)" opacity="0.7" fill="#FFFFFF" width="53.781" height="0"/>
		
			<rect x="719.361" y="138.928" transform="matrix(-0.6765 -0.7364 0.7364 -0.6765 1148.7791 782.4838)" opacity="0.9" fill="#FFFFFF" width="53.781" height="0"/>
		<polygon opacity="0.95" fill="#FFFFFF" points="1128.506,79.445 1055.756,79.445 1092.201,119.124 		"/>
		
			<rect x="1083.463" y="99.285" transform="matrix(-0.675 0.7378 -0.7378 -0.675 1933.1396 -652.8892)" opacity="0.4" fill="#FFFFFF" width="53.781" height="0"/>
		
			<rect x="1083.463" y="99.285" transform="matrix(-0.675 0.7378 -0.7378 -0.675 1933.1396 -652.8892)" opacity="0.9" fill="#FFFFFF" width="53.781" height="0"/>
		<rect x="1073.979" y="72.346" opacity="0.6" fill="#FFFFFF" width="0" height="53.876"/>
		<rect x="1073.979" y="72.346" opacity="0.9" fill="#FFFFFF" width="0" height="53.876"/>
		<rect x="1092.201" y="119.124" opacity="0.4" fill="#FFFFFF" width="0" height="0"/>
		<rect x="1092.201" y="119.124" opacity="0.6" fill="#FFFFFF" width="0" height="0"/>
		<rect x="1092.201" y="119.124" opacity="0.9" fill="#FFFFFF" width="0" height="0"/>
		<polygon opacity="0.95" fill="#FFFFFF" points="1019.385,119.125 1055.707,79.43 982.938,79.43 982.898,79.43 1019.375,119.14 
			1019.342,119.14 1055.709,158.731 1055.801,158.731 1092.041,119.125 		"/>
		<polygon opacity="0.6" fill="#FFFFFF" points="1055.707,79.43 1019.385,119.125 1055.707,79.43 		"/>
		<polygon opacity="0.9" fill="#FFFFFF" points="1055.707,79.43 1019.385,119.125 1055.707,79.43 		"/>
		<polygon opacity="0.95" fill="#FFFFFF" points="946.524,39.722 946.502,39.722 946.464,39.722 982.938,79.43 1019.273,39.722 		
			"/>
		<polygon opacity="0.9" fill="#FFFFFF" points="946.464,39.722 982.938,79.43 946.464,39.722 		"/>
		<polygon opacity="0.9" fill="#FFFFFF" points="946.464,39.722 982.938,79.43 946.464,39.722 		"/>
		<polygon opacity="0.95" fill="#FFFFFF" points="1092.186,119.14 1092.201,119.125 1092.15,119.125 1103.404,131.377 
			1128.533,158.731 1128.607,158.731 1164.836,119.14 		"/>
		<polygon opacity="0.4" fill="#FFFFFF" points="1092.201,119.125 1092.186,119.14 1092.201,119.125 		"/>
		<polygon opacity="0.9" fill="#FFFFFF" points="1092.201,119.125 1092.186,119.14 1092.201,119.125 		"/>
		<polygon fill="#FFFFFF" points="1103.404,131.377 1092.15,119.125 1092.15,119.125 		"/>
		<polygon opacity="0.9" fill="#FFFFFF" points="1103.404,131.377 1092.15,119.125 1092.15,119.125 		"/>
		<polygon opacity="0.95" fill="#FFFFFF" points="145.561,119.109 181.868,79.43 109.123,79.43 145.556,119.094 145.447,119.094 
			181.857,158.731 181.935,158.731 218.191,119.109 		"/>
		<polygon opacity="0.7" fill="#FFFFFF" points="181.868,79.43 145.561,119.109 181.868,79.43 		"/>
		<polygon opacity="0.9" fill="#FFFFFF" points="181.868,79.43 145.561,119.109 181.868,79.43 		"/>
		
			<rect x="136.741" y="138.913" transform="matrix(-0.6765 -0.7364 0.7364 -0.6765 172.0594 353.4074)" opacity="0.8" fill="#FFFFFF" width="53.823" height="0"/>
		
			<rect x="136.741" y="138.913" transform="matrix(-0.6765 -0.7364 0.7364 -0.6765 172.0594 353.4074)" opacity="0.9" fill="#FFFFFF" width="53.823" height="0"/>
		<polygon opacity="0.95" fill="#FFFFFF" points="181.899,79.396 181.899,79.396 218.203,39.722 145.524,39.722 145.404,39.722 
			145.399,39.722 158.34,53.811 181.871,79.426 		"/>
		
			<rect x="173.162" y="59.559" transform="matrix(-0.6751 0.7378 -0.7378 -0.6751 379.0385 -47.8242)" opacity="0.85" fill="#FFFFFF" width="53.777" height="0"/>
		
			<rect x="173.162" y="59.559" transform="matrix(-0.6751 0.7378 -0.7378 -0.6751 379.0385 -47.8242)" opacity="0.9" fill="#FFFFFF" width="53.777" height="0"/>
		<polygon opacity="0.5" fill="#FFFFFF" points="145.399,39.722 158.34,53.811 145.399,39.722 		"/>
		<polygon opacity="0.9" fill="#FFFFFF" points="145.399,39.722 158.34,53.811 145.399,39.722 		"/>
		<polygon opacity="0.7" fill="#FFFFFF" points="181.899,79.396 181.899,79.396 181.899,79.396 		"/>
		<polygon opacity="0.9" fill="#FFFFFF" points="181.899,79.396 181.899,79.396 181.899,79.396 		"/>
		<rect x="181.899" y="79.396" opacity="0.85" fill="#FFFFFF" width="0" height="0"/>
		<rect x="181.899" y="79.396" opacity="0.7" fill="#FFFFFF" width="0" height="0"/>
		<rect x="181.899" y="79.396" opacity="0.9" fill="#FFFFFF" width="0" height="0"/>
		<polygon opacity="0.9" fill="#FFFFFF" points="-0.229,79.419 -0.229,119.062 36.212,79.419 		"/>
		<polygon opacity="0.9" fill="#FFFFFF" points="72.578,39.722 -0.21,39.722 36.254,79.419 36.241,79.419 36.246,79.425 
			36.248,79.427 		"/>
		
			<rect x="27.504" y="59.574" transform="matrix(-0.6751 0.7378 -0.7378 -0.6751 135.096 59.6463)" fill="#FFFFFF" width="53.818" height="0"/>
		
			<rect x="27.504" y="59.574" transform="matrix(-0.6751 0.7378 -0.7378 -0.6751 135.096 59.6463)" opacity="0.9" fill="#FFFFFF" width="53.818" height="0"/>
		<polygon opacity="0.9" fill="#FFFFFF" points="-0.21,39.722 36.254,79.419 -0.21,39.722 		"/>
		<polygon opacity="0.9" fill="#FFFFFF" points="-0.21,39.722 36.254,79.419 -0.21,39.722 		"/>
		<polygon opacity="0.75" fill="#FFFFFF" points="36.246,79.425 36.248,79.427 36.248,79.427 		"/>
		<polygon opacity="0.9" fill="#FFFFFF" points="36.246,79.425 36.248,79.427 36.248,79.427 		"/>
		<rect x="36.248" y="79.427" fill="#FFFFFF" width="0" height="0"/>
		<rect x="36.248" y="79.427" opacity="0.75" fill="#FFFFFF" width="0" height="0"/>
		<rect x="36.248" y="79.427" opacity="0.9" fill="#FFFFFF" width="0" height="0"/>
		<polygon opacity="0.95" fill="#FFFFFF" points="145.395,119.094 72.74,119.094 109.031,79.43 36.25,79.43 72.697,119.062 
			-0.229,119.062 -0.229,119.07 -0.225,119.065 36.212,158.731 36.297,158.731 72.592,119.065 109.029,158.731 109.125,158.731 
			125.735,140.58 		"/>
		<polygon opacity="0.5" fill="#FFFFFF" points="109.031,79.43 72.74,119.094 109.031,79.43 		"/>
		<polygon opacity="0.9" fill="#FFFFFF" points="109.031,79.43 72.74,119.094 109.031,79.43 		"/>
		<polygon opacity="0.8" fill="#FFFFFF" points="125.735,140.58 145.395,119.094 145.395,119.094 		"/>
		<polygon opacity="0.9" fill="#FFFFFF" points="125.735,140.58 145.395,119.094 145.395,119.094 		"/>
		<polygon opacity="0.8" fill="#FFFFFF" points="109.029,158.731 109.029,158.731 72.592,119.065 		"/>
		<polygon opacity="0.9" fill="#FFFFFF" points="109.029,158.731 109.029,158.731 72.592,119.065 		"/>
		<polygon opacity="0.9" fill="#FFFFFF" points="36.212,158.731 36.212,158.731 -0.225,119.065 		"/>
		<polygon opacity="0.9" fill="#FFFFFF" points="36.212,158.731 36.212,158.731 -0.225,119.065 		"/>
		<polygon opacity="0.94" fill="#FFFFFF" points="509.692,119.125 509.671,119.125 509.592,119.125 545.974,158.731 
			546.074,158.731 582.315,119.125 		"/>
		
			<rect x="500.893" y="138.928" transform="matrix(-0.6765 -0.7365 0.7365 -0.6765 782.5103 621.5981)" opacity="0.95" fill="#FFFFFF" width="53.78" height="0"/>
		
			<rect x="500.893" y="138.928" transform="matrix(-0.6765 -0.7365 0.7365 -0.6765 782.5103 621.5981)" opacity="0.9" fill="#FFFFFF" width="53.78" height="0"/>
		<polygon opacity="0.95" fill="#FFFFFF" points="291.199,119.125 327.534,79.414 327.528,79.414 363.847,39.722 291.159,39.722 
			291.152,39.722 291.032,39.722 327.507,79.43 254.729,79.43 291.191,119.125 291.124,119.125 327.506,158.731 327.596,158.731 
			363.836,119.125 		"/>
		<polygon opacity="0.7" fill="#FFFFFF" points="363.847,39.722 327.528,79.414 363.847,39.722 		"/>
		<polygon opacity="0.9" fill="#FFFFFF" points="363.847,39.722 327.528,79.414 363.847,39.722 		"/>
		<polygon opacity="0.95" fill="#FFFFFF" points="327.507,79.43 291.032,39.722 291.032,39.722 		"/>
		<polygon opacity="0.9" fill="#FFFFFF" points="327.507,79.43 291.032,39.722 291.032,39.722 		"/>
		<polygon opacity="0.95" fill="#FFFFFF" points="327.534,79.414 291.199,119.125 327.534,79.414 		"/>
		<polygon opacity="0.9" fill="#FFFFFF" points="327.534,79.414 291.199,119.125 327.534,79.414 		"/>
		
			<rect x="282.425" y="138.928" transform="matrix(-0.6765 -0.7364 0.7364 -0.6765 416.2527 460.7066)" opacity="0.7" fill="#FFFFFF" width="53.781" height="0"/>
		
			<rect x="282.425" y="138.928" transform="matrix(-0.6765 -0.7364 0.7364 -0.6765 416.2527 460.7066)" opacity="0.9" fill="#FFFFFF" width="53.781" height="0"/>
		<polygon opacity="0.9" fill="#FFFFFF" points="1894.443,117.934 1855.48,159.864 1894.488,159.864 1894.488,117.98 		"/>
		<polygon opacity="0.9" fill="#FFFFFF" points="1893.107,119.065 1893.111,119.065 1893.15,119.065 1893.15,119.062 
			1890.424,119.065 		"/>
		<polygon fill="#FFFFFF" points="1893.15,119.112 1893.15,119.065 1893.111,119.065 1893.109,119.067 1856.816,158.731 
			1856.816,158.731 1893.109,119.067 		"/>
		<polygon opacity="0.9" fill="#FFFFFF" points="1893.15,119.112 1893.15,119.065 1893.111,119.065 1893.109,119.067 
			1856.816,158.731 1856.816,158.731 1893.109,119.067 		"/>
		<polygon opacity="0.95" fill="#FFFFFF" points="1747.418,119.131 1674.777,119.131 1674.787,119.14 1674.729,119.14 
			1711.1,158.731 1711.182,158.731 1715.879,153.598 		"/>
		<polygon opacity="0.4" fill="#FFFFFF" points="1715.879,153.598 1747.418,119.131 1747.418,119.131 		"/>
		<polygon opacity="0.9" fill="#FFFFFF" points="1715.879,153.598 1747.418,119.131 1747.418,119.131 		"/>
		<polygon opacity="0.95" fill="#FFFFFF" points="1820.227,119.14 1747.613,119.14 1783.947,79.43 1783.871,79.43 1820.203,39.722 
			1747.584,39.722 1747.473,39.722 1747.348,39.722 1783.822,79.43 1711.127,79.43 1747.594,119.131 1747.539,119.131 
			1783.916,158.731 1784.002,158.731 1787.322,155.101 		"/>
		<polygon opacity="0.2" fill="#FFFFFF" points="1820.203,39.722 1783.871,79.43 1820.203,39.722 		"/>
		<polygon opacity="0.9" fill="#FFFFFF" points="1820.203,39.722 1783.871,79.43 1820.203,39.722 		"/>
		<polygon opacity="0.9" fill="#FFFFFF" points="1787.322,155.101 1820.227,119.14 1820.227,119.14 		"/>
		<polygon opacity="0.9" fill="#FFFFFF" points="1787.322,155.101 1820.227,119.14 1820.227,119.14 		"/>
		<polygon opacity="0.95" fill="#FFFFFF" points="1674.59,119.14 1601.971,119.14 1638.309,79.427 1674.777,119.13 
			1692.225,100.062 1711.104,79.43 1711.004,79.43 1711.02,79.414 1638.219,79.414 1638.234,79.43 1565.469,79.43 1601.932,119.125 
			1601.881,119.125 1613.135,131.377 1638.264,158.731 1638.365,158.731 1641.686,155.101 		"/>
		<polygon opacity="0.7" fill="#FFFFFF" points="1711.02,79.414 1711.004,79.43 1711.02,79.414 		"/>
		<polygon opacity="0.9" fill="#FFFFFF" points="1711.02,79.414 1711.004,79.43 1711.02,79.414 		"/>
		<polygon opacity="0.8" fill="#FFFFFF" points="1638.234,79.43 1638.219,79.414 1638.219,79.414 		"/>
		<polygon opacity="0.9" fill="#FFFFFF" points="1638.234,79.43 1638.219,79.414 1638.219,79.414 		"/>
		<polygon opacity="0.7" fill="#FFFFFF" points="1692.225,100.062 1674.777,119.13 1674.777,119.13 		"/>
		<polygon opacity="0.9" fill="#FFFFFF" points="1692.225,100.062 1674.777,119.13 1674.777,119.13 		"/>
		<polygon opacity="0.8" fill="#FFFFFF" points="1641.686,155.101 1674.59,119.14 1674.59,119.14 		"/>
		<polygon opacity="0.9" fill="#FFFFFF" points="1641.686,155.101 1674.59,119.14 1674.59,119.14 		"/>
		<polygon opacity="0.9" fill="#FFFFFF" points="1613.135,131.377 1601.881,119.125 1601.881,119.125 		"/>
		<polygon opacity="0.9" fill="#FFFFFF" points="1613.135,131.377 1601.881,119.125 1601.881,119.125 		"/>
		<polygon opacity="0.95" fill="#FFFFFF" points="873.572,119.14 800.937,119.14 800.899,119.14 815.545,135.083 837.268,158.731 
			837.345,158.731 858.983,135.083 		"/>
		<polygon opacity="0.9" fill="#FFFFFF" points="858.983,135.083 873.572,119.14 873.572,119.14 		"/>
		<polygon opacity="0.9" fill="#FFFFFF" points="858.983,135.083 873.572,119.14 873.572,119.14 		"/>
		<polygon opacity="0.7" fill="#FFFFFF" points="837.268,158.731 837.268,158.731 815.545,135.083 		"/>
		<polygon opacity="0.9" fill="#FFFFFF" points="837.268,158.731 837.268,158.731 815.545,135.083 		"/>
		<polygon opacity="0.95" fill="#FFFFFF" points="1529.113,119.125 1565.436,79.43 1565.416,79.43 1601.75,39.722 1529.1,39.722 
			1529.098,39.722 1456.285,39.722 1492.621,0.01 1529.1,39.721 1565.436,0.01 1601.916,39.722 1601.758,39.722 1638.213,79.406 
			1674.521,39.722 1601.939,39.722 1638.277,0.01 1674.756,39.722 1674.559,39.722 1711.02,79.412 1727.639,61.252 1747.34,39.722 
			1674.766,39.722 1711.104,0.01 1747.529,39.662 1783.809,0.01 1820.287,39.722 1820.211,39.722 1856.686,79.43 1783.953,79.43 
			1804.412,101.705 1820.357,119.065 1820.498,119.065 1856.768,79.427 1893.15,119.062 1893.15,79.414 1856.717,79.414 
			1893.117,39.749 1893.1,39.729 1820.398,39.722 1856.734,0.01 1893.137,39.716 1893.15,39.716 1893.15,-0.004 -0.229,-0.004 
			-0.229,39.711 -0.225,39.706 -0.22,39.711 36.107,0.01 72.588,39.722 72.586,39.722 88.016,56.519 109.046,79.413 109.076,79.38 
			109.089,79.394 139.253,46.431 145.391,39.722 72.708,39.722 109.044,0.01 145.464,39.657 181.742,0.01 218.212,39.711 
			218.221,39.701 254.7,79.414 181.916,79.414 218.378,119.109 218.271,119.109 229.034,130.825 254.668,158.731 254.773,158.731 
			291.015,119.125 218.375,119.125 254.695,79.43 254.689,79.43 291.023,39.722 218.344,39.722 254.68,0.01 291.156,39.718 
			327.489,0.01 363.967,39.722 363.884,39.722 400.345,79.414 327.539,79.414 364.015,119.125 400.351,79.411 436.831,119.125 
			436.77,119.125 473.153,158.731 473.242,158.731 509.483,119.125 436.876,119.125 473.182,79.445 473.159,79.445 473.173,79.43 
			400.383,79.43 436.716,39.722 363.999,39.722 400.335,0.01 436.814,39.722 436.725,39.722 441.135,44.522 473.188,79.414 
			509.496,39.732 545.975,79.445 473.244,79.445 509.682,119.114 546.008,79.411 582.487,119.125 582.424,119.125 618.806,158.731 
			618.905,158.731 655.145,119.125 582.51,119.125 618.847,79.411 655.325,119.121 683.679,88.133 691.641,79.43 618.868,79.43 
			655.201,39.722 582.455,39.722 582.432,39.722 582.331,39.722 618.786,79.409 545.97,79.409 582.284,39.722 509.645,39.722 
			509.64,39.722 436.829,39.722 473.166,0.01 509.642,39.719 545.976,0.01 582.444,39.709 618.768,0.01 655.25,39.722 
			655.209,39.722 686.076,73.324 691.678,79.424 728.006,39.722 655.273,39.722 691.611,0.01 728.09,39.722 728.015,39.722 
			764.491,79.43 764.458,79.43 800.937,119.14 837.271,79.43 764.498,79.43 800.831,39.722 728.111,39.722 764.45,0.01 
			800.912,39.703 837.232,0.01 873.708,39.719 910.042,0.01 946.513,39.71 982.838,0.01 1019.318,39.722 1019.283,39.722 
			1047.09,69.994 1055.744,79.416 1092.055,39.732 1128.52,79.429 1128.521,79.427 1165.002,119.14 1164.975,119.14 
			1201.342,158.731 1201.426,158.731 1237.652,119.14 1165.033,119.14 1201.369,79.427 1237.852,119.14 1237.791,119.14 
			1274.16,158.731 1274.248,158.731 1294.893,136.172 1310.482,119.135 1237.848,119.135 1274.174,79.43 1274.119,79.43 
			1310.453,39.722 1237.811,39.722 1237.791,39.722 1237.652,39.722 1274.113,79.414 1201.328,79.414 1201.297,79.414 
			1128.51,79.414 1164.83,39.722 1092.156,39.722 1092.154,39.722 1019.338,39.722 1055.678,0.01 1092.154,39.721 1128.49,0.01 
			1164.969,39.722 1164.867,39.722 1178.018,54.035 1201.312,79.396 1225.762,52.675 1237.615,39.722 1164.99,39.722 1201.328,0.01 
			1237.801,39.711 1274.125,0.01 1310.604,39.722 1310.463,39.722 1346.938,79.43 1274.189,79.43 1310.654,119.128 1320.33,108.555 
			1346.977,79.43 1346.943,79.43 1383.277,39.722 1310.607,39.722 1346.943,0.01 1383.424,39.722 1383.287,39.722 1399.861,57.769 
			1419.754,79.423 1439.568,57.769 1456.082,39.722 1383.445,39.722 1419.781,0.01 1456.262,39.722 1456.092,39.722 1492.566,79.43 
			1419.83,79.43 1456.309,119.14 1456.244,119.14 1492.613,158.731 1492.699,158.731 1496.635,154.428 1528.936,119.13 
			1456.301,119.13 1492.609,79.445 1492.572,79.445 1528.91,39.732 1565.389,79.445 1492.664,79.445 1529.115,119.13 
			1529.055,119.13 1565.432,158.731 1565.531,158.731 1601.771,119.125 		"/>
		<polygon opacity="0.8" fill="#FFFFFF" points="1783.809,0.01 1747.529,39.662 1747.529,39.662 		"/>
		<polygon opacity="0.9" fill="#FFFFFF" points="1783.809,0.01 1747.529,39.662 1747.529,39.662 		"/>
		<polygon fill="#FFFFFF" points="1565.436,0.01 1529.1,39.721 1529.1,39.721 		"/>
		<polygon opacity="0.9" fill="#FFFFFF" points="1565.436,0.01 1529.1,39.721 1529.1,39.721 		"/>
		<polygon opacity="0.9" fill="#FFFFFF" points="1529.1,39.721 1492.621,0.01 1529.1,39.721 		"/>
		<polygon opacity="0.9" fill="#FFFFFF" points="1529.1,39.721 1492.621,0.01 1529.1,39.721 		"/>
		<rect x="1529.1" y="39.721" fill="#FFFFFF" width="0" height="0"/>
		<rect x="1529.1" y="39.721" opacity="0.9" fill="#FFFFFF" width="0" height="0"/>
		<rect x="1529.1" y="39.721" opacity="0.9" fill="#FFFFFF" width="0" height="0"/>
		<polygon opacity="0.9" fill="#FFFFFF" points="1128.49,0.01 1092.154,39.721 1092.154,39.721 		"/>
		<polygon opacity="0.9" fill="#FFFFFF" points="1128.49,0.01 1092.154,39.721 1092.154,39.721 		"/>
		<polygon opacity="0.4" fill="#FFFFFF" points="1092.154,39.721 1055.678,0.01 1092.154,39.721 		"/>
		<polygon opacity="0.9" fill="#FFFFFF" points="1092.154,39.721 1055.678,0.01 1092.154,39.721 		"/>
		<rect x="1092.154" y="39.721" opacity="0.9" fill="#FFFFFF" width="0" height="0"/>
		<rect x="1092.154" y="39.721" opacity="0.4" fill="#FFFFFF" width="0" height="0"/>
		<rect x="1092.154" y="39.721" opacity="0.9" fill="#FFFFFF" width="0" height="0"/>
		<polygon fill="#FFFFFF" points="982.838,0.01 946.513,39.71 946.513,39.71 		"/>
		<polygon opacity="0.9" fill="#FFFFFF" points="982.838,0.01 946.513,39.71 946.513,39.71 		"/>
		<polygon opacity="0.98" fill="#FFFFFF" points="800.912,39.703 764.45,0.01 800.912,39.703 		"/>
		<polygon opacity="0.9" fill="#FFFFFF" points="800.912,39.703 764.45,0.01 800.912,39.703 		"/>
		<polygon opacity="0.9" fill="#FFFFFF" points="618.768,0.01 582.444,39.709 582.444,39.709 		"/>
		<polygon opacity="0.9" fill="#FFFFFF" points="618.768,0.01 582.444,39.709 582.444,39.709 		"/>
		<polygon opacity="0.65" fill="#FFFFFF" points="582.444,39.709 545.976,0.01 582.444,39.709 		"/>
		<polygon opacity="0.9" fill="#FFFFFF" points="582.444,39.709 545.976,0.01 582.444,39.709 		"/>
		<rect x="582.444" y="39.709" opacity="0.9" fill="#FFFFFF" width="0" height="0"/>
		<rect x="582.444" y="39.709" opacity="0.65" fill="#FFFFFF" width="0" height="0"/>
		<rect x="582.444" y="39.709" opacity="0.9" fill="#FFFFFF" width="0" height="0"/>
		<polygon opacity="0.4" fill="#FFFFFF" points="327.489,0.01 291.156,39.718 291.156,39.718 		"/>
		<polygon opacity="0.9" fill="#FFFFFF" points="327.489,0.01 291.156,39.718 291.156,39.718 		"/>
		<polygon opacity="0.6" fill="#FFFFFF" points="181.742,0.01 145.464,39.657 145.464,39.657 		"/>
		<polygon opacity="0.9" fill="#FFFFFF" points="181.742,0.01 145.464,39.657 145.464,39.657 		"/>
		<polygon opacity="0.7" fill="#FFFFFF" points="1747.34,39.722 1727.639,61.252 1747.34,39.722 		"/>
		<polygon opacity="0.9" fill="#FFFFFF" points="1747.34,39.722 1727.639,61.252 1747.34,39.722 		"/>
		<rect x="1656.367" y="32.67" opacity="0.85" fill="#FFFFFF" width="0" height="53.788"/>
		<rect x="1656.367" y="32.67" opacity="0.9" fill="#FFFFFF" width="0" height="53.788"/>
		<rect x="1692.789" y="32.619" opacity="0.85" fill="#FFFFFF" width="0" height="53.896"/>
		<rect x="1692.789" y="32.619" opacity="0.9" fill="#FFFFFF" width="0" height="53.896"/>
		<polygon opacity="0.8" fill="#FFFFFF" points="1601.75,39.722 1565.416,79.43 1601.75,39.722 		"/>
		<polygon opacity="0.9" fill="#FFFFFF" points="1601.75,39.722 1565.416,79.43 1601.75,39.722 		"/>
		<polygon opacity="0.4" fill="#FFFFFF" points="1439.568,57.769 1419.754,79.423 1419.754,79.424 		"/>
		<polygon opacity="0.9" fill="#FFFFFF" points="1439.568,57.769 1419.754,79.423 1419.754,79.424 		"/>
		<polygon opacity="0.4" fill="#FFFFFF" points="1419.754,79.423 1399.861,57.769 1419.754,79.424 		"/>
		<polygon opacity="0.9" fill="#FFFFFF" points="1419.754,79.423 1399.861,57.769 1419.754,79.424 		"/>
		<rect x="1419.754" y="79.423" opacity="0.4" fill="#FFFFFF" width="0" height="0.001"/>
		<rect x="1419.754" y="79.423" opacity="0.4" fill="#FFFFFF" width="0" height="0.001"/>
		<rect x="1419.754" y="79.423" opacity="0.9" fill="#FFFFFF" width="0" height="0.001"/>
		<polygon fill="#FFFFFF" points="1237.615,39.722 1225.762,52.675 1237.615,39.722 		"/>
		<polygon opacity="0.9" fill="#FFFFFF" points="1237.615,39.722 1225.762,52.675 1237.615,39.722 		"/>
		<polygon fill="#FFFFFF" points="1274.113,79.414 1237.652,39.722 1237.652,39.722 		"/>
		<polygon opacity="0.9" fill="#FFFFFF" points="1274.113,79.414 1237.652,39.722 1237.652,39.722 		"/>
		<polygon opacity="0.8" fill="#FFFFFF" points="1178.018,54.035 1164.867,39.722 1164.867,39.722 		"/>
		<polygon opacity="0.9" fill="#FFFFFF" points="1178.018,54.035 1164.867,39.722 1164.867,39.722 		"/>
		<polygon opacity="0.8" fill="#FFFFFF" points="1164.83,39.722 1128.51,79.414 1164.83,39.722 		"/>
		<polygon opacity="0.9" fill="#FFFFFF" points="1164.83,39.722 1128.51,79.414 1164.83,39.722 		"/>
		<polygon opacity="0.95" fill="#FFFFFF" points="1128.52,79.429 1092.055,39.732 1128.52,79.43 		"/>
		<polygon opacity="0.9" fill="#FFFFFF" points="1128.52,79.429 1092.055,39.732 1128.52,79.43 		"/>
		<polygon opacity="0.6" fill="#FFFFFF" points="1055.744,79.416 1047.09,69.994 1055.744,79.416 		"/>
		<polygon opacity="0.9" fill="#FFFFFF" points="1055.744,79.416 1047.09,69.994 1055.744,79.416 		"/>
		<polygon opacity="0.7" fill="#FFFFFF" points="800.831,39.722 764.498,79.43 800.831,39.722 		"/>
		<polygon opacity="0.9" fill="#FFFFFF" points="800.831,39.722 764.498,79.43 800.831,39.722 		"/>
		<rect x="709.842" y="32.666" opacity="0.85" fill="#FFFFFF" width="0" height="53.814"/>
		<rect x="709.842" y="32.666" opacity="0.9" fill="#FFFFFF" width="0" height="53.814"/>
		<polygon opacity="0.85" fill="#FFFFFF" points="764.491,79.43 728.015,39.722 728.015,39.722 		"/>
		<polygon opacity="0.9" fill="#FFFFFF" points="764.491,79.43 728.015,39.722 728.015,39.722 		"/>
		<polygon opacity="0.8" fill="#FFFFFF" points="655.201,39.722 618.868,79.43 655.201,39.722 		"/>
		<polygon opacity="0.9" fill="#FFFFFF" points="655.201,39.722 618.868,79.43 655.201,39.722 		"/>
		<polygon opacity="0.8" fill="#FFFFFF" points="686.076,73.324 655.209,39.722 655.209,39.722 		"/>
		<polygon opacity="0.9" fill="#FFFFFF" points="686.076,73.324 655.209,39.722 655.209,39.722 		"/>
		<polygon opacity="0.75" fill="#FFFFFF" points="441.135,44.522 436.725,39.722 436.725,39.722 		"/>
		<polygon opacity="0.9" fill="#FFFFFF" points="441.135,44.522 436.725,39.722 436.725,39.722 		"/>
		<polygon opacity="0.75" fill="#FFFFFF" points="436.716,39.722 400.383,79.43 436.716,39.722 		"/>
		<polygon opacity="0.9" fill="#FFFFFF" points="436.716,39.722 400.383,79.43 436.716,39.722 		"/>
		<polygon opacity="0.95" fill="#FFFFFF" points="291.023,39.722 254.689,79.43 291.023,39.722 		"/>
		<polygon opacity="0.9" fill="#FFFFFF" points="291.023,39.722 254.689,79.43 291.023,39.722 		"/>
		<polygon opacity="0.5" fill="#FFFFFF" points="145.391,39.722 139.253,46.431 145.391,39.722 		"/>
		<polygon opacity="0.9" fill="#FFFFFF" points="145.391,39.722 139.253,46.431 145.391,39.722 		"/>
		<polygon fill="#FFFFFF" points="88.016,56.519 72.586,39.722 72.586,39.722 		"/>
		<polygon opacity="0.9" fill="#FFFFFF" points="88.016,56.519 72.586,39.722 72.586,39.722 		"/>
		<polygon opacity="0.5" fill="#FFFFFF" points="1820.357,119.065 1820.357,119.065 1804.412,101.705 		"/>
		<polygon opacity="0.9" fill="#FFFFFF" points="1820.357,119.065 1820.357,119.065 1804.412,101.705 		"/>
		<polygon opacity="0.2" fill="#FFFFFF" points="1565.436,79.43 1529.113,119.125 1565.436,79.43 		"/>
		<polygon opacity="0.9" fill="#FFFFFF" points="1565.436,79.43 1529.113,119.125 1565.436,79.43 		"/>
		<polygon opacity="0.8" fill="#FFFFFF" points="1320.33,108.555 1310.654,119.128 1310.654,119.128 		"/>
		<polygon opacity="0.9" fill="#FFFFFF" points="1320.33,108.555 1310.654,119.128 1310.654,119.128 		"/>
		<polygon opacity="0.4" fill="#FFFFFF" points="1274.174,79.43 1237.848,119.135 1274.174,79.43 		"/>
		<polygon opacity="0.9" fill="#FFFFFF" points="1274.174,79.43 1237.848,119.135 1274.174,79.43 		"/>
		<rect x="1292.422" y="72.327" opacity="0.4" fill="#FFFFFF" width="0" height="53.904"/>
		<rect x="1292.422" y="72.327" opacity="0.9" fill="#FFFFFF" width="0" height="53.904"/>
		<rect x="1310.654" y="119.128" opacity="0.8" fill="#FFFFFF" width="0" height="0"/>
		<rect x="1310.654" y="119.128" opacity="0.4" fill="#FFFFFF" width="0" height="0"/>
		<rect x="1310.654" y="119.128" opacity="0.9" fill="#FFFFFF" width="0" height="0"/>
		<polygon opacity="0.4" fill="#FFFFFF" points="1128.521,79.427 1128.52,79.429 1128.52,79.43 		"/>
		<polygon opacity="0.9" fill="#FFFFFF" points="1128.521,79.427 1128.52,79.429 1128.52,79.43 		"/>
		<rect x="1128.52" y="79.429" opacity="0.95" fill="#FFFFFF" width="0" height="0.001"/>
		<rect x="1128.52" y="79.429" opacity="0.4" fill="#FFFFFF" width="0" height="0.001"/>
		<rect x="1128.52" y="79.429" opacity="0.9" fill="#FFFFFF" width="0" height="0.001"/>
		<polygon opacity="0.95" fill="#FFFFFF" points="683.679,88.133 655.325,119.121 655.325,119.121 		"/>
		<polygon opacity="0.9" fill="#FFFFFF" points="683.679,88.133 655.325,119.121 655.325,119.121 		"/>
		<polygon opacity="0.9" fill="#FFFFFF" points="546.008,79.411 509.682,119.114 509.682,119.114 		"/>
		<polygon opacity="0.9" fill="#FFFFFF" points="546.008,79.411 509.682,119.114 509.682,119.114 		"/>
		<polygon opacity="0.6" fill="#FFFFFF" points="473.182,79.445 436.876,119.125 473.182,79.445 		"/>
		<polygon opacity="0.9" fill="#FFFFFF" points="473.182,79.445 436.876,119.125 473.182,79.445 		"/>
		<rect x="491.463" y="72.348" opacity="0.6" fill="#FFFFFF" width="0" height="53.864"/>
		<rect x="491.463" y="72.348" opacity="0.9" fill="#FFFFFF" width="0" height="53.864"/>
		<rect x="509.682" y="119.114" opacity="0.9" fill="#FFFFFF" width="0" height="0"/>
		<rect x="509.682" y="119.114" opacity="0.6" fill="#FFFFFF" width="0" height="0"/>
		<rect x="509.682" y="119.114" opacity="0.9" fill="#FFFFFF" width="0" height="0"/>
		<polygon opacity="0.95" fill="#FFFFFF" points="364.015,119.125 327.539,79.414 327.539,79.414 		"/>
		<polygon opacity="0.9" fill="#FFFFFF" points="364.015,119.125 327.539,79.414 327.539,79.414 		"/>
		<polygon opacity="0.5" fill="#FFFFFF" points="109.076,79.38 109.046,79.413 109.046,79.413 		"/>
		<polygon opacity="0.9" fill="#FFFFFF" points="109.076,79.38 109.046,79.413 109.046,79.413 		"/>
		<polygon opacity="0.6" fill="#FFFFFF" points="1528.936,119.13 1496.635,154.428 1528.936,119.13 		"/>
		<polygon opacity="0.9" fill="#FFFFFF" points="1528.936,119.13 1496.635,154.428 1528.936,119.13 		"/>
		<polygon opacity="0.6" fill="#FFFFFF" points="1310.482,119.135 1294.893,136.172 1310.482,119.135 		"/>
		<polygon opacity="0.9" fill="#FFFFFF" points="1310.482,119.135 1294.893,136.172 1310.482,119.135 		"/>
		
			<rect x="573.725" y="138.928" transform="matrix(-0.6765 -0.7365 0.7365 -0.6765 904.6125 675.2354)" opacity="0.8" fill="#FFFFFF" width="53.78" height="0"/>
		
			<rect x="573.725" y="138.928" transform="matrix(-0.6765 -0.7365 0.7365 -0.6765 904.6125 675.2354)" opacity="0.9" fill="#FFFFFF" width="53.78" height="0"/>
		
			<rect x="428.071" y="138.928" transform="matrix(-0.6765 -0.7364 0.7364 -0.6765 660.4342 567.9646)" opacity="0.85" fill="#FFFFFF" width="53.781" height="0"/>
		
			<rect x="428.071" y="138.928" transform="matrix(-0.6765 -0.7364 0.7364 -0.6765 660.4342 567.9646)" opacity="0.9" fill="#FFFFFF" width="53.781" height="0"/>
		<polygon opacity="0.9" fill="#FFFFFF" points="254.668,158.731 254.668,158.731 229.034,130.825 		"/>
		<polygon opacity="0.9" fill="#FFFFFF" points="254.668,158.731 254.668,158.731 229.034,130.825 		"/>
		<polygon opacity="0.95" fill="#FFFFFF" points="364.015,119.125 363.945,119.125 400.328,158.731 400.419,158.731 
			436.661,119.125 		"/>
		
			<rect x="355.246" y="138.928" transform="matrix(-0.6765 -0.7364 0.7364 -0.6765 538.3423 514.3334)" opacity="0.9" fill="#FFFFFF" width="53.781" height="0"/>
		
			<rect x="355.246" y="138.928" transform="matrix(-0.6765 -0.7364 0.7364 -0.6765 538.3423 514.3334)" opacity="0.9" fill="#FFFFFF" width="53.781" height="0"/>
		<polygon opacity="0.95" fill="#FFFFFF" points="910.083,79.43 946.561,119.139 982.893,79.43 910.125,79.43 910.123,79.43 		"/>
		<polygon opacity="0.95" fill="#FFFFFF" points="861.709,52.763 873.642,39.722 800.929,39.722 800.895,39.722 800.839,39.722 
			813.786,53.816 837.312,79.426 		"/>
		<polygon fill="#FFFFFF" points="873.642,39.722 873.642,39.722 861.709,52.763 		"/>
		<polygon opacity="0.9" fill="#FFFFFF" points="873.642,39.722 873.642,39.722 861.709,52.763 		"/>
		<polygon opacity="0.7" fill="#FFFFFF" points="800.839,39.722 813.786,53.816 800.839,39.722 		"/>
		<polygon opacity="0.9" fill="#FFFFFF" points="800.839,39.722 813.786,53.816 800.839,39.722 		"/>
		<polygon opacity="0.95" fill="#FFFFFF" points="910.077,79.43 837.315,79.43 837.309,79.43 837.276,79.43 873.748,119.136 		"/>
		<polygon fill="#FFFFFF" points="946.455,39.722 873.711,39.722 873.707,39.722 873.651,39.722 910.124,79.429 		"/>
		
			<rect x="901.379" y="59.575" transform="matrix(-0.6751 0.7378 -0.7378 -0.6751 1598.8857 -585.0724)" opacity="0.9" fill="#FFFFFF" width="53.82" height="0"/>
		
			<rect x="901.379" y="59.575" transform="matrix(-0.6751 0.7378 -0.7378 -0.6751 1598.8857 -585.0724)" opacity="0.9" fill="#FFFFFF" width="53.82" height="0"/>
		<polygon fill="#FFFFFF" points="910.124,79.429 910.124,79.429 910.124,79.429 873.651,39.722 873.651,39.722 		"/>
		<polygon opacity="0.9" fill="#FFFFFF" points="910.124,79.429 910.124,79.429 910.124,79.429 873.651,39.722 873.651,39.722 		"/>
		<polygon opacity="0.95" fill="#FFFFFF" points="946.385,119.14 873.752,119.14 873.744,119.14 873.71,119.14 888.408,135.141 
			910.077,158.731 910.16,158.731 932.067,134.79 		"/>
		<polygon fill="#FFFFFF" points="946.385,119.14 946.385,119.14 932.067,134.79 		"/>
		<polygon opacity="0.9" fill="#FFFFFF" points="946.385,119.14 946.385,119.14 932.067,134.79 		"/>
		<polygon opacity="0.9" fill="#FFFFFF" points="910.077,158.731 910.077,158.731 888.408,135.141 		"/>
		<polygon opacity="0.9" fill="#FFFFFF" points="910.077,158.731 910.077,158.731 888.408,135.141 		"/>
		<polygon opacity="0.95" fill="#FFFFFF" points="1383.49,119.14 1419.824,79.43 1419.76,79.43 1419.748,79.43 1346.982,79.43 
			1383.461,119.14 1383.424,119.14 1419.789,158.731 1419.877,158.731 1456.105,119.14 		"/>
		<polygon opacity="0.95" fill="#FFFFFF" points="1310.643,119.14 1310.648,119.135 1310.609,119.135 1331.303,141.661 
			1346.982,158.731 1347.059,158.731 1383.285,119.14 		"/>
		<polygon opacity="0.8" fill="#FFFFFF" points="1310.648,119.135 1310.643,119.14 1310.648,119.135 		"/>
		<polygon opacity="0.9" fill="#FFFFFF" points="1310.648,119.135 1310.643,119.14 1310.648,119.135 		"/>
		<polygon opacity="0.6" fill="#FFFFFF" points="1331.303,141.661 1310.609,119.135 1310.609,119.135 		"/>
		<polygon opacity="0.9" fill="#FFFFFF" points="1331.303,141.661 1310.609,119.135 1310.609,119.135 		"/>
	</g>
</g>
</svg>
